COQAUX1 3d43d3677dfb743e49b194631b3e2f85 /home/masie11/sat/coq-checker/rat/Adalloc.v
1378 1384 VernacProof "tac:no using:no"
2128 2132 proof_build_time "0.008"
0 0 ad_alloc_opt_allocates_1 "0.008"
2128 2132 context_used ";"
2128 2132 proof_check_time "0.001"
2225 2231 VernacProof "tac:no using:no"
2319 2323 proof_build_time "0.001"
0 0 ad_alloc_opt_allocates "0.001"
2319 2323 context_used ";"
2319 2323 proof_check_time "0.000"
2559 2565 VernacProof "tac:no using:no"
3621 3625 proof_build_time "0.013"
0 0 ad_alloc_opt_optimal_1 "0.013"
3621 3625 context_used ";"
3621 3625 proof_check_time "0.002"
3749 3755 VernacProof "tac:no using:no"
3872 3876 proof_build_time "0.001"
0 0 ad_alloc_opt_optimal "0.001"
3872 3876 context_used ";"
3872 3876 proof_check_time "0.000"
0 0 vo_compile_time "0.238"
