COQAUX1 d5871a1cc1bc5c85082b7f6e2cfa0e61 /home/masie11/sat/coq-checker/rat/Basic.v
241 245 proof_build_time "0.001"
0 0 map_in "0.001"
241 245 context_used ";"
241 245 proof_check_time "0.000"
366 370 proof_build_time "0.002"
0 0 compare_Lt_dec "0.002"
366 370 context_used ";"
366 370 proof_check_time "0.000"
471 475 proof_build_time "0.002"
0 0 compare_Gt_dec "0.002"
471 475 context_used ";"
471 475 proof_check_time "0.000"
576 580 proof_build_time "0.002"
0 0 compare_Eq_dec "0.002"
576 580 context_used ";"
576 580 proof_check_time "0.000"
728 732 proof_build_time "0.001"
0 0 nat_compare_eq_rev "0.001"
728 732 context_used ";"
728 732 proof_check_time "0.000"
882 886 proof_build_time "0.002"
0 0 nat_compare_sym_lt "0.002"
882 886 context_used ";"
882 886 proof_check_time "0.001"
1036 1040 proof_build_time "0.002"
0 0 nat_compare_sym_gt "0.002"
1036 1040 context_used ";"
1036 1040 proof_check_time "0.001"
1346 1350 proof_build_time "0.001"
0 0 nat_compare_trans "0.001"
1346 1350 context_used ";"
1346 1350 proof_check_time "0.000"
1590 1594 proof_build_time "0.008"
0 0 Zabs_le_1 "0.008"
1590 1594 context_used ";"
1590 1594 proof_check_time "0.001"
1828 1832 proof_build_time "0.007"
0 0 Zabs_diff_le_1 "0.007"
1828 1832 context_used ";"
1828 1832 proof_check_time "0.002"
2151 2155 proof_build_time "0.003"
0 0 in_remove "0.003"
2151 2155 context_used ";"
2151 2155 proof_check_time "0.001"
2339 2343 proof_build_time "0.003"
0 0 remove_not_In "0.003"
2339 2343 context_used ";"
2339 2343 proof_check_time "0.001"
2495 2499 proof_build_time "0.002"
0 0 In_remove "0.002"
2495 2499 context_used ";"
2495 2499 proof_check_time "0.001"
2684 2688 proof_build_time "0.004"
0 0 remove_neq "0.004"
2684 2688 context_used ";"
2684 2688 proof_check_time "0.001"
3038 3042 proof_build_time "0.003"
0 0 remove_all_orig "0.003"
3038 3042 context_used ";"
3038 3042 proof_check_time "0.001"
3109 3188 context_used ";"
0 0 vo_compile_time "0.340"
