COQAUX1 60d068b78104e87114e7f147b1e22639 /home/masie11/sat/coq-checker/rat/BinaryTrees.v
1460 1464 proof_build_time "0.002"
0 0 BT_nought_char "0.002"
1460 1464 context_used "T_compare_eq eq_T_compare T_compare;"
1460 1464 proof_check_time "0.000"
2351 2355 proof_build_time "0.008"
0 0 BT_singleton_char "0.008"
2351 2355 context_used "T_compare_eq eq_T_compare;"
2351 2355 proof_check_time "0.001"
3455 3459 proof_build_time "0.021"
0 0 BT_rot_L_wf "0.021"
3455 3459 context_used "T_compare_sym_Lt T_compare_sym_Gt T_compare_trans T_compare_eq eq_T_compare;"
3455 3459 proof_check_time "0.002"
3708 3712 proof_build_time "0.008"
0 0 BT_rot_L_in "0.008"
3708 3712 context_used ";"
3708 3712 proof_check_time "0.001"
3961 3965 proof_build_time "0.048"
0 0 BT_in_rot_L "0.048"
3961 3965 context_used ";"
3961 3965 proof_check_time "0.001"
4518 4522 proof_build_time "0.019"
0 0 BT_rot_L_wf_rev "0.019"
4518 4522 context_used "T_compare_sym_Lt T_compare_sym_Gt T_compare_trans T_compare_eq eq_T_compare;"
4518 4522 proof_check_time "0.002"
5269 5273 proof_build_time "0.019"
0 0 BT_rot_R_wf "0.019"
5269 5273 context_used "T_compare_sym_Lt T_compare_sym_Gt T_compare_trans T_compare_eq eq_T_compare;"
5269 5273 proof_check_time "0.002"
5522 5526 proof_build_time "0.007"
0 0 BT_rot_R_in "0.007"
5522 5526 context_used ";"
5522 5526 proof_check_time "0.001"
5775 5779 proof_build_time "0.008"
0 0 BT_in_rot_R "0.008"
5775 5779 context_used ";"
5775 5779 proof_check_time "0.001"
6330 6334 proof_build_time "0.020"
0 0 BT_rot_R_wf_rev "0.020"
6330 6334 context_used "T_compare_sym_Lt T_compare_sym_Gt T_compare_trans T_compare_eq eq_T_compare;"
6330 6334 proof_check_time "0.002"
6784 6788 proof_build_time "0.005"
0 0 BT_rot_LL_wf "0.005"
6784 6788 context_used "T_compare_sym_Lt T_compare_sym_Gt T_compare_trans T_compare_eq eq_T_compare;"
6784 6788 proof_check_time "0.001"
7050 7054 proof_build_time "0.004"
0 0 BT_rot_LL_in "0.004"
7050 7054 context_used ";"
7050 7054 proof_check_time "0.001"
7338 7342 proof_build_time "0.004"
0 0 BT_in_rot_LL "0.004"
7338 7342 context_used ";"
7338 7342 proof_check_time "0.001"
7820 7824 proof_build_time "0.005"
0 0 BT_rot_RR_wf "0.005"
7820 7824 context_used "T_compare_sym_Lt T_compare_sym_Gt T_compare_trans T_compare_eq eq_T_compare;"
7820 7824 proof_check_time "0.001"
8051 8055 proof_build_time "0.002"
0 0 BT_rot_RR_in "0.002"
8051 8055 context_used ";"
8051 8055 proof_check_time "0.000"
8304 8308 proof_build_time "0.002"
0 0 BT_in_rot_RR "0.002"
8304 8308 context_used ";"
8304 8308 proof_check_time "0.000"
9723 9727 proof_build_time "0.015"
0 0 BT_balance_wf "0.015"
9723 9727 context_used "T_compare_sym_Lt T_compare_sym_Gt T_compare_trans T_compare_eq eq_T_compare;"
9723 9727 proof_check_time "0.003"
10168 10172 proof_build_time "0.009"
0 0 BT_balance_in "0.009"
10168 10172 context_used ";"
10168 10172 proof_check_time "0.003"
10613 10617 proof_build_time "0.010"
0 0 BT_in_balance "0.010"
10613 10617 context_used ";"
10613 10617 proof_check_time "0.003"
14648 14652 proof_build_time "0.003"
0 0 BT_add_in "0.003"
14648 14652 context_used "T_compare_eq eq_T_compare;"
14648 14652 proof_check_time "0.001"
15140 15144 proof_build_time "0.015"
0 0 BT_in_add "0.015"
15140 15144 context_used ";"
15140 15144 proof_check_time "0.001"
15646 15650 proof_build_time "0.017"
0 0 BT_wf_add "0.017"
15646 15650 context_used "T_compare_sym_Lt T_compare_sym_Gt;"
15646 15650 proof_check_time "0.002"
16119 16123 proof_build_time "0.014"
0 0 BT_add_mon "0.014"
16119 16123 context_used "T_compare_eq eq_T_compare;"
16119 16123 proof_check_time "0.002"
17176 17180 proof_build_time "0.031"
0 0 BT_add_wf_rev "0.031"
17176 17180 context_used "T_compare_sym_Lt T_compare_sym_Gt T_compare_eq eq_T_compare;"
17176 17180 proof_check_time "0.005"
18366 18370 proof_build_time "0.025"
0 0 BT_split_in_r "0.025"
18366 18370 context_used "eq_T_compare T_compare;"
18366 18370 proof_check_time "0.004"
19043 19047 proof_build_time "0.012"
0 0 BT_split_wf "0.012"
19043 19047 context_used "eq_T_compare;"
19043 19047 proof_check_time "0.002"
19605 19609 proof_build_time "0.009"
0 0 BT_split_in_l "0.009"
19605 19609 context_used "T_compare_eq eq_T_compare T_compare;"
19605 19609 proof_check_time "0.002"
20398 20402 proof_build_time "0.017"
0 0 BT_split_in "0.017"
20398 20402 context_used "T_compare_eq eq_T_compare T_compare;"
20398 20402 proof_check_time "0.003"
21969 21973 proof_build_time "0.034"
0 0 BT_split_compare "0.034"
21969 21973 context_used "T_compare_sym_Lt T_compare_sym_Gt T_compare_trans T_compare_eq eq_T_compare;"
21969 21973 proof_check_time "0.004"
22759 22763 proof_build_time "0.017"
0 0 BT_in_dec "0.017"
22759 22763 context_used "T_compare_eq eq_T_compare;"
22759 22763 proof_check_time "0.002"
23349 23353 proof_build_time "0.007"
0 0 BT_all_in_dec "0.007"
23349 23353 context_used "T_compare_eq eq_T_compare;"
23349 23353 proof_check_time "0.001"
24862 24866 proof_build_time "0.019"
0 0 BT_remove_in "0.019"
24862 24866 context_used "T_compare_eq eq_T_compare;"
24862 24866 proof_check_time "0.002"
26069 26073 proof_build_time "0.026"
0 0 BT_remove_wf "0.026"
26069 26073 context_used "T_compare_sym_Lt T_compare_sym_Gt T_compare_trans T_compare_eq eq_T_compare;"
26069 26073 proof_check_time "0.003"
27406 27410 proof_build_time "0.044"
0 0 BT_remove_in_rev "0.044"
27406 27410 context_used "T_compare_eq eq_T_compare;"
27406 27410 proof_check_time "0.003"
28522 28526 proof_build_time "0.017"
0 0 BT_in_remove "0.017"
28522 28526 context_used "T_compare_eq eq_T_compare;"
28522 28526 proof_check_time "0.003"
30011 30015 proof_build_time "0.024"
0 0 BT_remove_out "0.024"
30011 30015 context_used "T_compare_eq eq_T_compare;"
30011 30015 proof_check_time "0.003"
30643 30647 proof_build_time "0.003"
0 0 BT_diff_wf "0.003"
30643 30647 context_used "T_compare_sym_Lt T_compare_sym_Gt T_compare_trans T_compare_eq eq_T_compare;"
30643 30647 proof_check_time "0.000"
30987 30991 proof_build_time "0.014"
0 0 BT_diff_in "0.014"
30987 30991 context_used "T_compare_eq eq_T_compare;"
30987 30991 proof_check_time "0.000"
31494 31498 proof_build_time "0.008"
0 0 BT_diff_in_rev "0.008"
31494 31498 context_used "T_compare_eq eq_T_compare;"
31494 31498 proof_check_time "0.001"
32080 32084 proof_build_time "0.005"
0 0 BT_diff_out "0.005"
32080 32084 context_used "T_compare_sym_Lt T_compare_sym_Gt T_compare_trans T_compare_eq eq_T_compare;"
32080 32084 proof_check_time "0.001"
32280 32284 proof_build_time "0.001"
0 0 BT_diff_out' "0.001"
32280 32284 context_used "T_compare_sym_Lt T_compare_sym_Gt T_compare_trans T_compare_eq eq_T_compare;"
32280 32284 proof_check_time "0.000"
32567 32571 proof_build_time "0.001"
0 0 BT_diff_nought "0.001"
32567 32571 context_used "T_compare_sym_Lt T_compare_sym_Gt T_compare_trans T_compare_eq eq_T_compare;"
32567 32571 proof_check_time "0.000"
33162 33166 proof_build_time "0.007"
0 0 BT_nought_diff "0.007"
33162 33166 context_used "T_compare_eq eq_T_compare;"
33162 33166 proof_check_time "0.001"
33511 33515 proof_build_time "0.002"
0 0 in_list_BTree "0.002"
33511 33515 context_used "T_compare_eq eq_T_compare;"
33511 33515 proof_check_time "0.000"
33659 33663 proof_build_time "0.002"
0 0 in_BTree_list "0.002"
33659 33663 context_used ";"
33659 33663 proof_check_time "0.000"
33793 33797 proof_build_time "0.001"
0 0 list_to_BTree_wf "0.001"
33793 33797 context_used "T_compare_sym_Lt T_compare_sym_Gt;"
33793 33797 proof_check_time "0.000"
34948 34952 proof_build_time "0.018"
0 0 BT_size_split "0.018"
34948 34952 context_used ";"
34948 34952 proof_check_time "0.003"
35299 35303 proof_build_time "0.001"
0 0 BT_wf_add_all "0.001"
35299 35303 context_used "T_compare_sym_Lt T_compare_sym_Gt;"
35299 35303 proof_check_time "0.000"
35473 35477 proof_build_time "0.005"
0 0 BT_add_all_wf_rev "0.005"
35473 35477 context_used "T_compare_sym_Lt T_compare_sym_Gt T_compare_eq eq_T_compare;"
35473 35477 proof_check_time "0.000"
35686 35690 proof_build_time "0.001"
0 0 BT_add_all_mon "0.001"
35686 35690 context_used "T_compare_eq eq_T_compare;"
35686 35690 proof_check_time "0.000"
36000 36004 proof_build_time "0.003"
0 0 BT_add_all_in "0.003"
36000 36004 context_used "T_compare_eq eq_T_compare;"
36000 36004 proof_check_time "0.000"
36297 36301 proof_build_time "0.007"
0 0 BT_in_add_all "0.007"
36297 36301 context_used ";"
36297 36301 proof_check_time "0.001"
36782 36786 proof_build_time "0.003"
0 0 BT_map_in "0.003"
36782 36786 context_used "T_compare_eq eq_T_compare;"
36782 36786 proof_check_time "0.000"
0 0 vo_compile_time "1.077"
