COQAUX1 2649f46edc7d455eabda06ee8e1b8eb7 /home/masie11/sat/coq-checker/rat/Mapaxioms.v
865 871 VernacProof "tac:no using:no"
930 934 proof_build_time "0.001"
0 0 eqm_sym "0.001"
930 934 context_used ";"
930 934 proof_check_time "0.000"
993 999 VernacProof "tac:no using:no"
1035 1039 proof_build_time "0.000"
0 0 eqm_refl "0.000"
1035 1039 context_used ";"
1035 1039 proof_check_time "0.000"
1141 1147 VernacProof "tac:no using:no"
1207 1211 proof_build_time "0.001"
0 0 eqm_trans "0.001"
1207 1211 context_used ";"
1207 1211 proof_check_time "0.000"
1350 1356 VernacProof "tac:no using:no"
1420 1424 proof_build_time "0.000"
0 0 eqmap_sym "0.000"
1420 1424 context_used ";"
1420 1424 proof_check_time "0.000"
1476 1482 VernacProof "tac:no using:no"
1535 1539 proof_build_time "0.000"
0 0 eqmap_refl "0.000"
1535 1539 context_used ";"
1535 1539 proof_check_time "0.000"
1634 1640 VernacProof "tac:no using:no"
1721 1725 proof_build_time "0.000"
0 0 eqmap_trans "0.000"
1721 1725 context_used ";"
1721 1725 proof_check_time "0.000"
1844 1850 VernacProof "tac:no using:no"
2076 2080 proof_build_time "0.002"
0 0 MapPut_as_Merge "0.002"
2076 2080 context_used ";"
2076 2080 proof_check_time "0.001"
2214 2220 VernacProof "tac:no using:no"
2395 2399 proof_build_time "0.001"
0 0 MapPut_ext "0.001"
2395 2399 context_used ";"
2395 2399 proof_check_time "0.000"
2532 2538 VernacProof "tac:no using:no"
2691 2695 proof_build_time "0.001"
0 0 MapPut_behind_as_Merge "0.001"
2691 2695 context_used ";"
2691 2695 proof_check_time "0.001"
2857 2863 VernacProof "tac:no using:no"
3031 3035 proof_build_time "0.001"
0 0 MapPut_behind_ext "0.001"
3031 3035 context_used ";"
3031 3035 proof_check_time "0.001"
3109 3115 VernacProof "tac:no using:no"
3131 3135 proof_build_time "0.000"
0 0 MapMerge_empty_m_1 "0.000"
3131 3135 context_used ";"
3131 3135 proof_check_time "0.000"
3213 3219 VernacProof "tac:no using:no"
3262 3266 proof_build_time "0.000"
0 0 MapMerge_empty_m "0.000"
3262 3266 context_used ";"
3262 3266 proof_check_time "0.000"
3340 3346 VernacProof "tac:no using:no"
3382 3386 proof_build_time "0.000"
0 0 MapMerge_m_empty_1 "0.000"
3382 3386 context_used ";"
3382 3386 proof_check_time "0.000"
3464 3470 VernacProof "tac:no using:no"
3553 3557 proof_build_time "0.001"
0 0 MapMerge_m_empty "0.001"
3553 3557 context_used ";"
3553 3557 proof_check_time "0.000"
3660 3666 VernacProof "tac:no using:no"
3884 3888 proof_build_time "0.002"
0 0 MapMerge_empty_l "0.002"
3884 3888 context_used ";"
3884 3888 proof_check_time "0.001"
3992 3998 VernacProof "tac:no using:no"
4187 4191 proof_build_time "0.001"
0 0 MapMerge_empty_r "0.001"
4187 4191 context_used ";"
4187 4191 proof_check_time "0.000"
4335 4341 VernacProof "tac:no using:no"
4641 4645 proof_build_time "0.003"
0 0 MapMerge_assoc "0.003"
4641 4645 context_used ";"
4641 4645 proof_check_time "0.001"
4721 4727 VernacProof "tac:no using:no"
4841 4845 proof_build_time "0.001"
0 0 MapMerge_idempotent "0.001"
4841 4845 context_used ";"
4841 4845 proof_check_time "0.000"
4992 4998 VernacProof "tac:no using:no"
5170 5174 proof_build_time "0.001"
0 0 MapMerge_ext "0.001"
5170 5174 context_used ";"
5170 5174 proof_check_time "0.001"
5297 5303 VernacProof "tac:no using:no"
5372 5376 proof_build_time "0.000"
0 0 MapMerge_ext_l "0.000"
5372 5376 context_used ";"
5372 5376 proof_check_time "0.000"
5499 5505 VernacProof "tac:no using:no"
5574 5578 proof_build_time "0.000"
0 0 MapMerge_ext_r "0.000"
5574 5578 context_used ";"
5574 5578 proof_check_time "0.000"
5757 5763 VernacProof "tac:no using:no"
6160 6164 proof_build_time "0.003"
0 0 MapMerge_RestrTo_l "0.003"
6160 6164 context_used ";"
6160 6164 proof_check_time "0.001"
6296 6302 VernacProof "tac:no using:no"
6659 6663 proof_build_time "0.003"
0 0 MapRemove_as_RestrBy "0.003"
6659 6663 context_used ";"
6659 6663 proof_check_time "0.001"
6789 6795 VernacProof "tac:no using:no"
6972 6976 proof_build_time "0.001"
0 0 MapRemove_ext "0.001"
6972 6976 context_used ";"
6972 6976 proof_check_time "0.001"
7068 7074 VernacProof "tac:no using:no"
7090 7094 proof_build_time "0.000"
0 0 MapDomRestrTo_empty_m_1 "0.000"
7090 7094 context_used ";"
7090 7094 proof_check_time "0.000"
7192 7198 VernacProof "tac:no using:no"
7241 7245 proof_build_time "0.000"
0 0 MapDomRestrTo_empty_m "0.000"
7241 7245 context_used ";"
7241 7245 proof_check_time "0.000"
7337 7343 VernacProof "tac:no using:no"
7379 7383 proof_build_time "0.001"
0 0 MapDomRestrTo_m_empty_1 "0.001"
7379 7383 context_used ";"
7379 7383 proof_check_time "0.000"
7481 7487 VernacProof "tac:no using:no"
7579 7583 proof_build_time "0.000"
0 0 MapDomRestrTo_m_empty "0.000"
7579 7583 context_used ";"
7579 7583 proof_check_time "0.000"
7778 7784 VernacProof "tac:no using:no"
8134 8138 proof_build_time "0.003"
0 0 MapDomRestrTo_assoc "0.003"
8134 8138 context_used ";"
8134 8138 proof_check_time "0.001"
8229 8235 VernacProof "tac:no using:no"
8356 8360 proof_build_time "0.001"
0 0 MapDomRestrTo_idempotent "0.001"
8356 8360 context_used ";"
8356 8360 proof_check_time "0.000"
8500 8506 VernacProof "tac:no using:no"
9084 9088 proof_build_time "0.006"
0 0 MapDomRestrTo_Dom "0.006"
9084 9088 context_used ";"
9084 9088 proof_check_time "0.001"
9180 9186 VernacProof "tac:no using:no"
9202 9206 proof_build_time "0.000"
0 0 MapDomRestrBy_empty_m_1 "0.000"
9202 9206 context_used ";"
9202 9206 proof_check_time "0.000"
9304 9310 VernacProof "tac:no using:no"
9353 9357 proof_build_time "0.000"
0 0 MapDomRestrBy_empty_m "0.000"
9353 9357 context_used ";"
9353 9357 proof_check_time "0.000"
9446 9452 VernacProof "tac:no using:no"
9488 9492 proof_build_time "0.001"
0 0 MapDomRestrBy_m_empty_1 "0.001"
9488 9492 context_used ";"
9488 9492 proof_check_time "0.000"
9585 9591 VernacProof "tac:no using:no"
9683 9687 proof_build_time "0.000"
0 0 MapDomRestrBy_m_empty "0.000"
9683 9687 context_used ";"
9683 9687 proof_check_time "0.000"
9827 9833 VernacProof "tac:no using:no"
10415 10419 proof_build_time "0.005"
0 0 MapDomRestrBy_Dom "0.005"
10415 10419 context_used ";"
10415 10419 proof_check_time "0.002"
10510 10516 VernacProof "tac:no using:no"
10637 10641 proof_build_time "0.001"
0 0 MapDomRestrBy_m_m_1 "0.001"
10637 10641 context_used ";"
10637 10641 proof_check_time "0.000"
10818 10824 VernacProof "tac:no using:no"
11160 11164 proof_build_time "0.003"
0 0 MapDomRestrBy_By "0.003"
11160 11164 context_used ";"
11160 11164 proof_check_time "0.001"
11361 11367 VernacProof "tac:no using:no"
11716 11720 proof_build_time "0.003"
0 0 MapDomRestrBy_By_comm "0.003"
11716 11720 context_used ";"
11716 11720 proof_check_time "0.044"
11912 11918 VernacProof "tac:no using:no"
12268 12272 proof_build_time "0.003"
0 0 MapDomRestrBy_To "0.003"
12268 12272 context_used ";"
12268 12272 proof_check_time "0.001"
12469 12475 VernacProof "tac:no using:no"
12824 12828 proof_build_time "0.003"
0 0 MapDomRestrBy_To_comm "0.003"
12824 12828 context_used ";"
12824 12828 proof_check_time "0.001"
13020 13026 VernacProof "tac:no using:no"
13376 13380 proof_build_time "0.003"
0 0 MapDomRestrTo_By "0.003"
13376 13380 context_used ";"
13376 13380 proof_check_time "0.001"
13577 13583 VernacProof "tac:no using:no"
13932 13936 proof_build_time "0.003"
0 0 MapDomRestrTo_By_comm "0.003"
13932 13936 context_used ";"
13932 13936 proof_check_time "0.001"
14133 14139 VernacProof "tac:no using:no"
14488 14492 proof_build_time "0.003"
0 0 MapDomRestrTo_To_comm "0.003"
14488 14492 context_used ";"
14488 14492 proof_check_time "0.001"
14689 14695 VernacProof "tac:no using:no"
15112 15116 proof_build_time "0.003"
0 0 MapMerge_DomRestrTo "0.003"
15112 15116 context_used ";"
15112 15116 proof_check_time "0.001"
15313 15319 VernacProof "tac:no using:no"
15736 15740 proof_build_time "0.003"
0 0 MapMerge_DomRestrBy "0.003"
15736 15740 context_used ";"
15736 15740 proof_check_time "0.001"
15814 15820 VernacProof "tac:no using:no"
15836 15840 proof_build_time "0.000"
0 0 MapDelta_empty_m_1 "0.000"
15836 15840 context_used ";"
15836 15840 proof_check_time "0.000"
15918 15924 VernacProof "tac:no using:no"
15967 15971 proof_build_time "0.000"
0 0 MapDelta_empty_m "0.000"
15967 15971 context_used ";"
15967 15971 proof_check_time "0.000"
16045 16051 VernacProof "tac:no using:no"
16087 16091 proof_build_time "0.001"
0 0 MapDelta_m_empty_1 "0.001"
16087 16091 context_used ";"
16087 16091 proof_check_time "0.000"
16169 16175 VernacProof "tac:no using:no"
16258 16262 proof_build_time "0.001"
0 0 MapDelta_m_empty "0.001"
16258 16262 context_used ";"
16258 16262 proof_check_time "0.000"
16342 16348 VernacProof "tac:no using:no"
16462 16466 proof_build_time "0.001"
0 0 MapDelta_nilpotent "0.001"
16462 16466 context_used ";"
16462 16466 proof_check_time "0.000"
16620 16626 VernacProof "tac:no using:no"
16969 16973 proof_build_time "0.003"
0 0 MapDelta_as_Merge "0.003"
16969 16973 context_used ";"
16969 16973 proof_check_time "0.001"
17132 17138 VernacProof "tac:no using:no"
17466 17470 proof_build_time "0.003"
0 0 MapDelta_as_DomRestrBy "0.003"
17466 17470 context_used ";"
17466 17470 proof_check_time "0.001"
17631 17637 VernacProof "tac:no using:no"
17965 17969 proof_build_time "0.003"
0 0 MapDelta_as_DomRestrBy_2 "0.003"
17965 17969 context_used ";"
17965 17969 proof_check_time "0.001"
18061 18067 VernacProof "tac:no using:no"
18248 18252 proof_build_time "0.002"
0 0 MapDelta_sym "0.002"
18248 18252 context_used ";"
18248 18252 proof_check_time "0.001"
18399 18405 VernacProof "tac:no using:no"
18577 18581 proof_build_time "0.002"
0 0 MapDelta_ext "0.002"
18577 18581 context_used ";"
18577 18581 proof_check_time "0.001"
18704 18710 VernacProof "tac:no using:no"
18779 18783 proof_build_time "0.000"
0 0 MapDelta_ext_l "0.000"
18779 18783 context_used ";"
18779 18783 proof_check_time "0.000"
18906 18912 VernacProof "tac:no using:no"
18981 18985 proof_build_time "0.000"
0 0 MapDelta_ext_r "0.000"
18981 18985 context_used ";"
18981 18985 proof_check_time "0.000"
19123 19129 VernacProof "tac:no using:no"
19429 19433 proof_build_time "0.002"
0 0 MapDom_Split_1 "0.002"
19429 19433 context_used ";"
19429 19433 proof_check_time "0.001"
19572 19578 VernacProof "tac:no using:no"
19878 19882 proof_build_time "0.002"
0 0 MapDom_Split_2 "0.002"
19878 19882 context_used ";"
19878 19882 proof_check_time "0.001"
20046 20052 VernacProof "tac:no using:no"
20358 20362 proof_build_time "0.002"
0 0 MapDom_Split_3 "0.002"
20358 20362 context_used ";"
20358 20362 proof_check_time "0.001"
20584 20590 VernacProof "tac:no using:no"
20770 20774 proof_build_time "0.002"
0 0 MapDomRestrTo_ext "0.002"
20770 20774 context_used ";"
20770 20774 proof_check_time "0.001"
20944 20950 VernacProof "tac:no using:no"
21021 21025 proof_build_time "0.000"
0 0 MapDomRestrTo_ext_l "0.000"
21021 21025 context_used ";"
21021 21025 proof_check_time "0.000"
21187 21193 VernacProof "tac:no using:no"
21264 21268 proof_build_time "0.000"
0 0 MapDomRestrTo_ext_r "0.000"
21264 21268 context_used ";"
21264 21268 proof_check_time "0.000"
21474 21480 VernacProof "tac:no using:no"
21660 21664 proof_build_time "0.001"
0 0 MapDomRestrBy_ext "0.001"
21660 21664 context_used ";"
21660 21664 proof_check_time "0.001"
21834 21840 VernacProof "tac:no using:no"
21911 21915 proof_build_time "0.000"
0 0 MapDomRestrBy_ext_l "0.000"
21911 21915 context_used ";"
21911 21915 proof_check_time "0.000"
22077 22083 VernacProof "tac:no using:no"
22154 22158 proof_build_time "0.000"
0 0 MapDomRestrBy_ext_r "0.000"
22154 22158 context_used ";"
22154 22158 proof_check_time "0.000"
22271 22277 VernacProof "tac:no using:no"
22415 22419 proof_build_time "0.001"
0 0 MapDomRestrBy_m_m "0.001"
22415 22419 context_used ";"
22415 22419 proof_check_time "0.000"
22558 22564 VernacProof "tac:no using:no"
22935 22939 proof_build_time "0.015"
0 0 FSetDelta_assoc "0.015"
22935 22939 context_used ";"
22935 22939 proof_check_time "0.003"
23042 23048 VernacProof "tac:no using:no"
23422 23426 proof_build_time "0.005"
0 0 FSet_ext "0.005"
23422 23426 context_used ";"
23422 23426 proof_check_time "0.001"
23516 23522 VernacProof "tac:no using:no"
23618 23622 proof_build_time "0.001"
0 0 FSetUnion_comm "0.001"
23618 23622 context_used ";"
23618 23622 proof_check_time "0.000"
23757 23763 VernacProof "tac:no using:no"
23795 23799 proof_build_time "0.000"
0 0 FSetUnion_assoc "0.000"
23795 23799 context_used ";"
23795 23799 proof_check_time "0.000"
23877 23883 VernacProof "tac:no using:no"
23917 23921 proof_build_time "0.000"
0 0 FSetUnion_M0_s "0.000"
23917 23921 context_used ";"
23917 23921 proof_check_time "0.000"
23999 24005 VernacProof "tac:no using:no"
24039 24043 proof_build_time "0.000"
0 0 FSetUnion_s_M0 "0.000"
24039 24043 context_used ";"
24039 24043 proof_check_time "0.000"
24119 24125 VernacProof "tac:no using:no"
24162 24166 proof_build_time "0.000"
0 0 FSetUnion_idempotent "0.000"
24162 24166 context_used ";"
24162 24166 proof_check_time "0.000"
24256 24262 VernacProof "tac:no using:no"
24359 24363 proof_build_time "0.001"
0 0 FSetInter_comm "0.001"
24359 24363 context_used ";"
24359 24363 proof_check_time "0.000"
24498 24504 VernacProof "tac:no using:no"
24551 24555 proof_build_time "0.000"
0 0 FSetInter_assoc "0.000"
24551 24555 context_used ";"
24551 24555 proof_check_time "0.000"
24642 24648 VernacProof "tac:no using:no"
24692 24696 proof_build_time "0.000"
0 0 FSetInter_M0_s "0.000"
24692 24696 context_used ";"
24692 24696 proof_check_time "0.000"
24783 24789 VernacProof "tac:no using:no"
24833 24837 proof_build_time "0.000"
0 0 FSetInter_s_M0 "0.000"
24833 24837 context_used ";"
24833 24837 proof_check_time "0.000"
24913 24919 VernacProof "tac:no using:no"
24961 24965 proof_build_time "0.000"
0 0 FSetInter_idempotent "0.000"
24961 24965 context_used ";"
24961 24965 proof_check_time "0.000"
25118 25124 VernacProof "tac:no using:no"
25353 25357 proof_build_time "0.004"
0 0 FSetUnion_Inter_l "0.004"
25353 25357 context_used ";"
25353 25357 proof_check_time "0.001"
25508 25514 VernacProof "tac:no using:no"
25743 25747 proof_build_time "0.004"
0 0 FSetUnion_Inter_r "0.004"
25743 25747 context_used ";"
25743 25747 proof_check_time "0.001"
25900 25906 VernacProof "tac:no using:no"
26135 26139 proof_build_time "0.004"
0 0 FSetInter_Union_l "0.004"
26135 26139 context_used ";"
26135 26139 proof_check_time "0.001"
26290 26296 VernacProof "tac:no using:no"
26525 26529 proof_build_time "0.004"
0 0 FSetInter_Union_r "0.004"
26525 26529 context_used ";"
26525 26529 proof_check_time "0.001"
0 0 vo_compile_time "0.476"
