COQAUX1 c6c4767429c185c5e0475bfa50c0dd87 /home/masie11/sat/coq-checker/rat/Maplists.v
977 1133 context_used ";"
1137 1290 context_used ";"
1448 1454 VernacProof "tac:no using:no"
1840 1844 proof_build_time "0.008"
0 0 ad_in_list_forms_circuit "0.008"
1840 1844 context_used ";"
1840 1844 proof_check_time "0.001"
2052 2058 VernacProof "tac:no using:no"
2576 2580 proof_build_time "0.016"
0 0 ad_list_stutters_has_circuit "0.016"
2576 2580 context_used ";"
2576 2580 proof_check_time "0.002"
2584 2709 context_used ";"
2775 2781 VernacProof "tac:no using:no"
2890 2894 proof_build_time "0.001"
0 0 Elems_canon "0.001"
2890 2894 context_used ";"
2890 2894 proof_check_time "0.000"
2992 2998 VernacProof "tac:no using:no"
3651 3655 proof_build_time "0.006"
0 0 Elems_app "0.006"
3651 3655 context_used ";"
3651 3655 proof_check_time "0.001"
3722 3728 VernacProof "tac:no using:no"
3921 3925 proof_build_time "0.002"
0 0 Elems_rev "0.002"
3921 3925 context_used ";"
3921 3925 proof_check_time "0.000"
4027 4033 VernacProof "tac:no using:no"
4196 4200 proof_build_time "0.002"
0 0 ad_in_elems_in_list "0.002"
4196 4200 context_used ";"
4196 4200 proof_check_time "0.001"
4328 4334 VernacProof "tac:no using:no"
4664 4668 proof_build_time "0.004"
0 0 ad_list_not_stutters_card "0.004"
4664 4668 context_used ";"
4664 4668 proof_check_time "0.001"
4746 4752 VernacProof "tac:no using:no"
4920 4924 proof_build_time "0.001"
0 0 ad_list_card "0.001"
4920 4924 context_used ";"
4920 4924 proof_check_time "0.000"
5047 5053 VernacProof "tac:no using:no"
5536 5540 proof_build_time "0.004"
0 0 ad_list_stutters_card "0.004"
5536 5540 context_used ";"
5536 5540 proof_check_time "0.001"
5673 5679 VernacProof "tac:no using:no"
5891 5895 proof_build_time "0.001"
0 0 ad_list_not_stutters_card_conv "0.001"
5891 5895 context_used ";"
5891 5895 proof_check_time "0.000"
6023 6029 VernacProof "tac:no using:no"
6181 6185 proof_build_time "0.001"
0 0 ad_list_stutters_card_conv "0.001"
6181 6185 context_used ";"
6181 6185 proof_check_time "0.000"
6306 6312 VernacProof "tac:no using:no"
6521 6525 proof_build_time "0.003"
0 0 ad_in_list_l "0.003"
6521 6525 context_used ";"
6521 6525 proof_check_time "0.001"
6655 6661 VernacProof "tac:no using:no"
6894 6898 proof_build_time "0.003"
0 0 ad_list_stutters_app_l "0.003"
6894 6898 context_used ";"
6894 6898 proof_check_time "0.001"
7020 7026 VernacProof "tac:no using:no"
7130 7134 proof_build_time "0.001"
0 0 ad_in_list_r "0.001"
7130 7134 context_used ";"
7130 7134 proof_check_time "0.000"
7265 7271 VernacProof "tac:no using:no"
7371 7375 proof_build_time "0.001"
0 0 ad_list_stutters_app_r "0.001"
7371 7375 context_used ";"
7371 7375 proof_check_time "0.000"
7512 7518 VernacProof "tac:no using:no"
7668 7672 proof_build_time "0.001"
0 0 ad_list_stutters_app_conv_l "0.001"
7668 7672 context_used ";"
7668 7672 proof_check_time "0.000"
7810 7816 VernacProof "tac:no using:no"
7967 7971 proof_build_time "0.001"
0 0 ad_list_stutters_app_conv_r "0.001"
7967 7971 context_used ";"
7967 7971 proof_check_time "0.000"
8071 8077 VernacProof "tac:no using:no"
8229 8233 proof_build_time "0.002"
0 0 ad_in_list_app_1 "0.002"
8229 8233 context_used ";"
8229 8233 proof_check_time "0.001"
8365 8371 VernacProof "tac:no using:no"
8487 8491 proof_build_time "0.002"
0 0 ad_in_list_app "0.002"
8487 8491 context_used ";"
8487 8491 proof_check_time "0.001"
8589 8595 VernacProof "tac:no using:no"
8753 8757 proof_build_time "0.002"
0 0 ad_in_list_rev "0.002"
8753 8757 context_used ";"
8753 8757 proof_check_time "0.000"
8894 8900 VernacProof "tac:no using:no"
9066 9070 proof_build_time "0.002"
0 0 ad_list_has_circuit_stutters "0.002"
9066 9070 context_used ";"
9066 9070 proof_check_time "0.000"
9211 9217 VernacProof "tac:no using:no"
9392 9396 proof_build_time "0.003"
0 0 ad_list_stutters_prev_l "0.003"
9392 9396 context_used ";"
9392 9396 proof_check_time "0.001"
9544 9550 VernacProof "tac:no using:no"
9699 9703 proof_build_time "0.049"
0 0 ad_list_stutters_prev_conv_l "0.049"
9699 9703 context_used ";"
9699 9703 proof_check_time "0.000"
9845 9851 VernacProof "tac:no using:no"
9994 9998 proof_build_time "0.002"
0 0 ad_list_stutters_prev_r "0.002"
9994 9998 context_used ";"
9994 9998 proof_check_time "0.000"
10147 10153 VernacProof "tac:no using:no"
10303 10307 proof_build_time "0.001"
0 0 ad_list_stutters_prev_conv_r "0.001"
10303 10307 context_used ";"
10303 10307 proof_check_time "0.000"
10481 10487 VernacProof "tac:no using:no"
10851 10855 proof_build_time "0.003"
0 0 ad_list_Elems "0.003"
10851 10855 context_used ";"
10851 10855 proof_check_time "0.000"
10953 10959 VernacProof "tac:no using:no"
11051 11055 proof_build_time "0.001"
0 0 ad_list_app_length "0.001"
11051 11055 context_used ";"
11051 11055 proof_check_time "0.000"
11180 11186 VernacProof "tac:no using:no"
11419 11423 proof_build_time "0.002"
0 0 ad_list_stutters_permute "0.002"
11419 11423 context_used ";"
11419 11423 proof_check_time "0.000"
11501 11507 VernacProof "tac:no using:no"
11687 11691 proof_build_time "0.002"
0 0 ad_list_rev_length "0.002"
11687 11691 context_used ";"
11687 11691 proof_check_time "0.000"
11794 11800 VernacProof "tac:no using:no"
11898 11902 proof_build_time "0.001"
0 0 ad_list_stutters_rev "0.001"
11898 11902 context_used ";"
11898 11902 proof_check_time "0.000"
12004 12010 VernacProof "tac:no using:no"
12316 12320 proof_build_time "0.006"
0 0 ad_list_app_rev "0.006"
12316 12320 context_used ";"
12316 12320 proof_check_time "0.001"
12588 12594 VernacProof "tac:no using:no"
13623 13627 proof_build_time "0.009"
0 0 ad_in_list_of_dom_in_dom "0.009"
13623 13627 context_used ";"
13623 13627 proof_check_time "0.002"
13733 13739 VernacProof "tac:no using:no"
14375 14379 proof_build_time "0.007"
0 0 Elems_of_list_of_dom "0.007"
14375 14379 context_used ";"
14375 14379 proof_check_time "0.001"
14490 14496 VernacProof "tac:no using:no"
14628 14632 proof_build_time "0.001"
0 0 Elems_of_list_of_dom_c "0.001"
14628 14632 context_used ";"
14628 14632 proof_check_time "0.000"
14824 14830 VernacProof "tac:no using:no"
15040 15044 proof_build_time "0.003"
0 0 ad_list_of_dom_card_1 "0.003"
15040 15044 context_used ";"
15040 15044 proof_check_time "0.001"
15138 15144 VernacProof "tac:no using:no"
15215 15219 proof_build_time "0.000"
0 0 ad_list_of_dom_card "0.000"
15215 15219 context_used ";"
15215 15219 proof_check_time "0.000"
15325 15331 VernacProof "tac:no using:no"
15508 15512 proof_build_time "0.001"
0 0 ad_list_of_dom_not_stutters "0.001"
15508 15512 context_used ";"
15508 15512 proof_check_time "0.000"
15806 15812 VernacProof "tac:no using:no"
15990 15994 proof_build_time "0.005"
0 0 ad_list_of_dom_Dom_1 "0.005"
15990 15994 context_used ";"
15990 15994 proof_check_time "0.002"
16117 16123 VernacProof "tac:no using:no"
16190 16194 proof_build_time "0.000"
0 0 ad_list_of_dom_Dom "0.000"
16190 16194 context_used ";"
16190 16194 proof_check_time "0.000"
0 0 vo_compile_time "0.453"
