COQAUX1 0d617d89cf922dcfa46aaba07be6073a /home/masie11/sat/coq-checker/rat/Mapfold.v
1301 1307 VernacProof "tac:no using:no"
1827 1831 proof_build_time "0.004"
0 0 MapFold_ext "0.004"
1827 1831 context_used "assoc nright nleft;"
1827 1831 proof_check_time "0.001"
2065 2071 VernacProof "tac:no using:no"
2564 2568 proof_build_time "0.005"
0 0 MapFold_ext_f_1 "0.005"
2564 2568 context_used ";"
2564 2568 proof_check_time "0.002"
2768 2774 VernacProof "tac:no using:no"
2840 2844 proof_build_time "0.000"
0 0 MapFold_ext_f "0.000"
2840 2844 context_used ";"
2840 2844 proof_check_time "0.000"
3065 3071 VernacProof "tac:no using:no"
3446 3450 proof_build_time "0.003"
0 0 MapFold1_as_Fold_1 "0.003"
3446 3450 context_used ";"
3446 3450 proof_check_time "0.001"
3635 3641 VernacProof "tac:no using:no"
3715 3719 proof_build_time "0.001"
0 0 MapFold1_as_Fold "0.001"
3715 3719 context_used ";"
3715 3719 proof_check_time "0.000"
3906 3912 VernacProof "tac:no using:no"
4010 4014 proof_build_time "0.001"
0 0 MapFold1_ext "0.001"
4010 4014 context_used "assoc nright nleft;"
4010 4014 proof_check_time "0.000"
4312 4318 VernacProof "tac:no using:no"
6237 6241 proof_build_time "0.021"
0 0 MapFold_Put_disjoint_1 "0.021"
6237 6241 context_used "comm nright nleft;"
6237 6241 proof_check_time "0.004"
6479 6485 VernacProof "tac:no using:no"
8240 8244 proof_build_time "0.019"
0 0 MapFold_Put_disjoint_2 "0.019"
8240 8244 context_used "comm assoc nright nleft;"
8240 8244 proof_check_time "0.007"
8453 8459 VernacProof "tac:no using:no"
8534 8538 proof_build_time "0.000"
0 0 MapFold_Put_disjoint "0.000"
8534 8538 context_used "comm assoc nright nleft;"
8534 8538 proof_check_time "0.000"
8790 8796 VernacProof "tac:no using:no"
9857 9861 proof_build_time "0.008"
0 0 MapFold_Put_behind_disjoint_2 "0.008"
9857 9861 context_used "comm assoc nright nleft;"
9857 9861 proof_check_time "0.002"
10084 10090 VernacProof "tac:no using:no"
10172 10176 proof_build_time "0.000"
0 0 MapFold_Put_behind_disjoint "0.000"
10172 10176 context_used "comm assoc nright nleft;"
10172 10176 proof_check_time "0.000"
10433 10439 VernacProof "tac:no using:no"
11368 11372 proof_build_time "0.007"
0 0 MapFold_Merge_disjoint_1 "0.007"
11368 11372 context_used "comm assoc nright nleft;"
11368 11372 proof_check_time "0.002"
11601 11607 VernacProof "tac:no using:no"
11684 11688 proof_build_time "0.000"
0 0 MapFold_Merge_disjoint "0.000"
11684 11688 context_used "comm assoc nright nleft;"
11684 11688 proof_check_time "0.000"
12342 12348 VernacProof "tac:no using:no"
12492 12496 proof_build_time "0.002"
0 0 MapFold_distr_r_1 "0.002"
12492 12496 context_used "distr absorb;"
12492 12496 proof_check_time "0.001"
12686 12692 VernacProof "tac:no using:no"
12756 12760 proof_build_time "0.000"
0 0 MapFold_distr_r "0.000"
12756 12760 context_used "distr absorb;"
12756 12760 proof_check_time "0.000"
13388 13394 VernacProof "tac:no using:no"
13491 13495 proof_build_time "0.001"
0 0 MapFold_distr_l "0.001"
13491 13495 context_used "distr absorb;"
13491 13495 proof_check_time "0.000"
13769 13775 VernacProof "tac:no using:no"
14105 14109 proof_build_time "0.005"
0 0 MapFold_orb_1 "0.005"
14105 14109 context_used ";"
14105 14109 proof_check_time "0.002"
14293 14299 VernacProof "tac:no using:no"
14357 14361 proof_build_time "0.000"
0 0 MapFold_orb "0.000"
14357 14361 context_used ";"
14357 14361 proof_check_time "0.000"
14737 14743 VernacProof "tac:no using:no"
14963 14967 proof_build_time "0.002"
0 0 in_dom_DMerge_1 "0.002"
14963 14967 context_used ";"
14963 14967 proof_check_time "0.001"
15153 15159 VernacProof "tac:no using:no"
15542 15546 proof_build_time "0.006"
0 0 in_dom_DMerge_2 "0.006"
15542 15546 context_used ";"
15542 15546 proof_check_time "0.002"
15713 15719 VernacProof "tac:no using:no"
15942 15946 proof_build_time "0.003"
0 0 in_dom_DMerge_3 "0.003"
15942 15946 context_used ";"
15942 15946 proof_check_time "0.001"
0 0 vo_compile_time "0.412"
