COQAUX1 c15618738f5e43f57e25dbd0aafac3fa /home/masie11/sat/coq-checker/rat/Mapsubset.v
1338 1344 VernacProof "tac:no using:no"
1908 1912 proof_build_time "0.006"
0 0 MapSubset_imp_1 "0.006"
1908 1912 context_used ";"
1908 1912 proof_check_time "0.001"
2017 2023 VernacProof "tac:no using:no"
2578 2582 proof_build_time "0.005"
0 0 MapSubset_1_imp "0.005"
2578 2582 context_used ";"
2578 2582 proof_check_time "0.002"
2686 2692 VernacProof "tac:no using:no"
2770 2774 proof_build_time "0.001"
0 0 map_dom_empty_1 "0.001"
2770 2774 context_used ";"
2770 2774 proof_check_time "0.000"
2880 2886 VernacProof "tac:no using:no"
3119 3123 proof_build_time "0.002"
0 0 map_dom_empty_2 "0.002"
3119 3123 context_used ";"
3119 3123 proof_check_time "0.000"
3221 3227 VernacProof "tac:no using:no"
3470 3474 proof_build_time "0.002"
0 0 MapSubset_imp_2 "0.002"
3470 3474 context_used ";"
3470 3474 proof_check_time "0.000"
3572 3578 VernacProof "tac:no using:no"
3904 3908 proof_build_time "0.003"
0 0 MapSubset_2_imp "0.003"
3904 3908 context_used ";"
3904 3908 proof_check_time "0.000"
4043 4049 VernacProof "tac:no using:no"
4093 4097 proof_build_time "0.000"
0 0 MapSubset_refl "0.000"
4093 4097 context_used ";"
4093 4097 proof_check_time "0.000"
4254 4260 VernacProof "tac:no using:no"
5155 5159 proof_build_time "0.012"
0 0 MapSubset_antisym "0.012"
5155 5159 context_used ";"
5155 5159 proof_check_time "0.002"
5305 5311 VernacProof "tac:no using:no"
5383 5387 proof_build_time "0.000"
0 0 MapSubset_trans "0.000"
5383 5387 context_used ";"
5383 5387 proof_check_time "0.000"
5492 5498 VernacProof "tac:no using:no"
5534 5538 proof_build_time "0.000"
0 0 FSubset_refl "0.000"
5534 5538 context_used ";"
5534 5538 proof_check_time "0.000"
5655 5661 VernacProof "tac:no using:no"
5772 5776 proof_build_time "0.001"
0 0 FSubset_antisym "0.001"
5772 5776 context_used ";"
5772 5776 proof_check_time "0.000"
5901 5907 VernacProof "tac:no using:no"
5954 5958 proof_build_time "0.000"
0 0 FSubset_trans "0.000"
5954 5958 context_used ";"
5954 5958 proof_check_time "0.000"
6164 6170 VernacProof "tac:no using:no"
6600 6604 proof_build_time "0.003"
0 0 MapSubset_Dom_1 "0.003"
6600 6604 context_used ";"
6600 6604 proof_check_time "0.001"
6741 6747 VernacProof "tac:no using:no"
7071 7075 proof_build_time "0.002"
0 0 MapSubset_Dom_2 "0.002"
7071 7075 context_used ";"
7071 7075 proof_check_time "0.001"
7215 7221 VernacProof "tac:no using:no"
7686 7690 proof_build_time "0.003"
0 0 MapSubset_1_Dom "0.003"
7686 7690 context_used ";"
7686 7690 proof_check_time "0.001"
7786 7792 VernacProof "tac:no using:no"
7882 7886 proof_build_time "0.001"
0 0 MapSubset_Put "0.001"
7882 7886 context_used ";"
7882 7886 proof_check_time "0.000"
8049 8055 VernacProof "tac:no using:no"
8273 8277 proof_build_time "0.002"
0 0 MapSubset_Put_mono "0.002"
8273 8277 context_used ";"
8273 8277 proof_check_time "0.001"
8387 8393 VernacProof "tac:no using:no"
8490 8494 proof_build_time "0.001"
0 0 MapSubset_Put_behind "0.001"
8490 8494 context_used ";"
8490 8494 proof_check_time "0.000"
8683 8689 VernacProof "tac:no using:no"
8925 8929 proof_build_time "0.002"
0 0 MapSubset_Put_behind_mono "0.002"
8925 8929 context_used ";"
8925 8929 proof_check_time "0.001"
9023 9029 VernacProof "tac:no using:no"
9180 9184 proof_build_time "0.001"
0 0 MapSubset_Remove "0.001"
9180 9184 context_used ";"
9180 9184 proof_check_time "0.000"
9338 9344 VernacProof "tac:no using:no"
9528 9532 proof_build_time "0.002"
0 0 MapSubset_Remove_mono "0.002"
9528 9532 context_used ";"
9528 9532 proof_check_time "0.000"
9621 9627 VernacProof "tac:no using:no"
9714 9718 proof_build_time "0.001"
0 0 MapSubset_Merge_l "0.001"
9714 9718 context_used ";"
9714 9718 proof_check_time "0.000"
9808 9814 VernacProof "tac:no using:no"
9906 9910 proof_build_time "0.001"
0 0 MapSubset_Merge_r "0.001"
9906 9910 context_used ";"
9906 9910 proof_check_time "0.000"
10104 10110 VernacProof "tac:no using:no"
10337 10341 proof_build_time "0.002"
0 0 MapSubset_Merge_mono "0.002"
10337 10341 context_used ";"
10337 10341 proof_check_time "0.001"
10452 10458 VernacProof "tac:no using:no"
10578 10582 proof_build_time "0.001"
0 0 MapSubset_DomRestrTo_l "0.001"
10578 10582 context_used ";"
10578 10582 proof_check_time "0.000"
10694 10700 VernacProof "tac:no using:no"
10820 10824 proof_build_time "0.001"
0 0 MapSubset_DomRestrTo_r "0.001"
10820 10824 context_used ";"
10820 10824 proof_check_time "0.000"
10979 10985 VernacProof "tac:no using:no"
11242 11246 proof_build_time "0.001"
0 0 MapSubset_ext "0.001"
11242 11246 context_used ";"
11242 11246 proof_check_time "0.000"
11500 11506 VernacProof "tac:no using:no"
11701 11705 proof_build_time "0.048"
0 0 MapSubset_DomRestrTo_mono "0.048"
11701 11705 context_used ";"
11701 11705 proof_check_time "0.001"
11816 11822 VernacProof "tac:no using:no"
11942 11946 proof_build_time "0.001"
0 0 MapSubset_DomRestrBy_l "0.001"
11942 11946 context_used ";"
11942 11946 proof_check_time "0.000"
12175 12181 VernacProof "tac:no using:no"
12481 12485 proof_build_time "0.003"
0 0 MapSubset_DomRestrBy_mono "0.003"
12481 12485 context_used ";"
12481 12485 proof_check_time "0.001"
13048 13054 VernacProof "tac:no using:no"
13543 13547 proof_build_time "0.005"
0 0 MapDisjoint_imp_1 "0.005"
13543 13547 context_used ";"
13543 13547 proof_check_time "0.001"
13658 13664 VernacProof "tac:no using:no"
14115 14119 proof_build_time "0.004"
0 0 MapDisjoint_1_imp "0.004"
14115 14119 context_used ";"
14115 14119 proof_check_time "0.001"
14223 14229 VernacProof "tac:no using:no"
14831 14835 proof_build_time "0.004"
0 0 MapDisjoint_imp_2 "0.004"
14831 14835 context_used ";"
14831 14835 proof_check_time "0.001"
14939 14945 VernacProof "tac:no using:no"
15310 15314 proof_build_time "0.002"
0 0 MapDisjoint_2_imp "0.002"
15310 15314 context_used ";"
15310 15314 proof_check_time "0.001"
15382 15388 VernacProof "tac:no using:no"
15455 15459 proof_build_time "0.000"
0 0 Map_M0_disjoint "0.000"
15455 15459 context_used ";"
15455 15459 proof_check_time "0.000"
15527 15533 VernacProof "tac:no using:no"
15601 15605 proof_build_time "0.000"
0 0 Map_disjoint_M0 "0.000"
15601 15605 context_used ";"
15601 15605 proof_check_time "0.000"
15839 15845 VernacProof "tac:no using:no"
16091 16095 proof_build_time "0.001"
0 0 MapDisjoint_ext "0.001"
16091 16095 context_used ";"
16091 16095 proof_check_time "0.000"
16345 16351 VernacProof "tac:no using:no"
16663 16667 proof_build_time "0.003"
0 0 MapMerge_disjoint "0.003"
16663 16667 context_used ";"
16663 16667 proof_check_time "0.001"
16810 16816 VernacProof "tac:no using:no"
17385 17389 proof_build_time "0.005"
0 0 MapDisjoint_M2_l "0.005"
17385 17389 context_used ";"
17385 17389 proof_check_time "0.001"
17532 17538 VernacProof "tac:no using:no"
18196 18200 proof_build_time "0.005"
0 0 MapDisjoint_M2_r "0.005"
18196 18200 context_used ";"
18196 18200 proof_check_time "0.001"
18371 18377 VernacProof "tac:no using:no"
18745 18749 proof_build_time "0.002"
0 0 MapDisjoint_M2 "0.002"
18745 18749 context_used ";"
18745 18749 proof_check_time "0.001"
18873 18879 VernacProof "tac:no using:no"
19023 19027 proof_build_time "0.001"
0 0 MapDisjoint_M1_l "0.001"
19023 19027 context_used ";"
19023 19027 proof_check_time "0.000"
19151 19157 VernacProof "tac:no using:no"
19301 19305 proof_build_time "0.001"
0 0 MapDisjoint_M1_r "0.001"
19301 19305 context_used ";"
19301 19305 proof_check_time "0.000"
19434 19440 VernacProof "tac:no using:no"
19560 19564 proof_build_time "0.001"
0 0 MapDisjoint_M1_conv_l "0.001"
19560 19564 context_used ";"
19560 19564 proof_check_time "0.000"
19693 19699 VernacProof "tac:no using:no"
19819 19823 proof_build_time "0.001"
0 0 MapDisjoint_M1_conv_r "0.001"
19819 19823 context_used ";"
19819 19823 proof_check_time "0.000"
19932 19938 VernacProof "tac:no using:no"
20000 20004 proof_build_time "0.000"
0 0 MapDisjoint_sym "0.000"
20000 20004 context_used ";"
20000 20004 proof_check_time "0.000"
20096 20102 VernacProof "tac:no using:no"
20232 20236 proof_build_time "0.001"
0 0 MapDisjoint_empty "0.001"
20232 20236 context_used ";"
20232 20236 proof_check_time "0.000"
20364 20370 VernacProof "tac:no using:no"
20722 20726 proof_build_time "0.001"
0 0 MapDelta_disjoint "0.001"
20722 20726 context_used ";"
20722 20726 proof_check_time "0.000"
20902 20908 VernacProof "tac:no using:no"
21118 21122 proof_build_time "0.002"
0 0 MapDomRestr_disjoint "0.002"
21118 21122 context_used ";"
21118 21122 proof_check_time "0.001"
21249 21255 VernacProof "tac:no using:no"
21446 21450 proof_build_time "0.002"
0 0 MapDelta_RestrTo_disjoint "0.002"
21446 21450 context_used ";"
21446 21450 proof_check_time "0.001"
21579 21585 VernacProof "tac:no using:no"
21776 21780 proof_build_time "0.002"
0 0 MapDelta_RestrTo_disjoint_2 "0.002"
21776 21780 context_used ";"
21776 21780 proof_check_time "0.001"
22005 22011 VernacProof "tac:no using:no"
22098 22102 proof_build_time "0.000"
0 0 MapSubset_Disjoint "0.000"
22098 22102 context_used ";"
22098 22102 proof_check_time "0.000"
22257 22263 VernacProof "tac:no using:no"
22343 22347 proof_build_time "0.000"
0 0 MapSubset_Disjoint_l "0.000"
22343 22347 context_used ";"
22343 22347 proof_check_time "0.000"
22513 22519 VernacProof "tac:no using:no"
22599 22603 proof_build_time "0.000"
0 0 MapSubset_Disjoint_r "0.000"
22599 22603 context_used ";"
22599 22603 proof_check_time "0.000"
0 0 vo_compile_time "0.443"
