COQAUX1 dd5895e24652c97a308a9c621613858a /home/masie11/sat/coq-checker/rat/Mapiter.v
1520 1526 VernacProof "tac:no using:no"
2163 2167 proof_build_time "0.014"
0 0 MapSweep_semantics_1_1 "0.014"
2163 2167 context_used ";"
2163 2167 proof_check_time "0.003"
2278 2284 VernacProof "tac:no using:no"
2355 2359 proof_build_time "0.000"
0 0 MapSweep_semantics_1 "0.000"
2355 2359 context_used ";"
2355 2359 proof_check_time "0.000"
2504 2510 VernacProof "tac:no using:no"
3208 3212 proof_build_time "0.015"
0 0 MapSweep_semantics_2_1 "0.015"
3208 3212 context_used ";"
3208 3212 proof_check_time "0.003"
3420 3426 VernacProof "tac:no using:no"
5351 5355 proof_build_time "0.029"
0 0 MapSweep_semantics_2_2 "0.029"
5351 5355 context_used ";"
5351 5355 proof_check_time "0.007"
5480 5486 VernacProof "tac:no using:no"
5623 5627 proof_build_time "0.000"
0 0 MapSweep_semantics_2 "0.000"
5623 5627 context_used ";"
5623 5627 proof_check_time "0.000"
5800 5806 VernacProof "tac:no using:no"
6807 6811 proof_build_time "0.012"
0 0 MapSweep_semantics_3_1 "0.012"
6807 6811 context_used ";"
6807 6811 proof_check_time "0.003"
6957 6963 VernacProof "tac:no using:no"
7043 7047 proof_build_time "0.000"
0 0 MapSweep_semantics_3 "0.000"
7043 7047 context_used ";"
7043 7047 proof_check_time "0.000"
7249 7255 VernacProof "tac:no using:no"
8496 8500 proof_build_time "0.059"
0 0 MapSweep_semantics_4_1 "0.059"
8496 8500 context_used ";"
8496 8500 proof_check_time "0.005"
8672 8678 VernacProof "tac:no using:no"
8754 8758 proof_build_time "0.000"
0 0 MapSweep_semantics_4 "0.000"
8754 8758 context_used ";"
8754 8758 proof_check_time "0.000"
9823 9829 VernacProof "tac:no using:no"
9849 9853 proof_build_time "0.000"
0 0 MapFold_empty "0.000"
9849 9853 context_used ";"
9849 9853 proof_check_time "0.000"
9955 9961 VernacProof "tac:no using:no"
9981 9985 proof_build_time "0.000"
0 0 MapFold_M1 "0.000"
9981 9985 context_used ";"
9981 9985 proof_check_time "0.000"
10773 10779 VernacProof "tac:no using:no"
10819 10823 proof_build_time "0.000"
0 0 pair_sp "0.000"
10819 10823 context_used ";"
10819 10823 proof_check_time "0.000"
11072 11078 VernacProof "tac:no using:no"
11727 11731 proof_build_time "0.004"
0 0 MapFold_state_stateless_1 "0.004"
11727 11731 context_used ";"
11727 11731 proof_check_time "0.001"
11965 11971 VernacProof "tac:no using:no"
12055 12059 proof_build_time "0.000"
0 0 MapFold_state_stateless "0.000"
12055 12059 context_used ";"
12055 12059 proof_check_time "0.000"
12216 12222 VernacProof "tac:no using:no"
12258 12262 proof_build_time "0.001"
0 0 MapCollect_as_Fold "0.001"
12258 12262 context_used ";"
12258 12262 proof_check_time "0.000"
12938 12944 VernacProof "tac:no using:no"
13095 13099 proof_build_time "0.002"
0 0 alist_semantics_app "0.002"
13095 13099 context_used ";"
13095 13099 proof_check_time "0.001"
13337 13343 VernacProof "tac:no using:no"
14770 14774 proof_build_time "0.009"
0 0 alist_of_Map_semantics_1_1 "0.009"
14770 14774 context_used ";"
14770 14774 proof_check_time "0.003"
14967 14973 VernacProof "tac:no using:no"
15048 15052 proof_build_time "0.000"
0 0 ad_comp_double_inj "0.000"
15048 15052 context_used ";"
15048 15052 proof_check_time "0.000"
15182 15188 VernacProof "tac:no using:no"
15272 15276 proof_build_time "0.000"
0 0 ad_comp_double_plus_un_inj "0.000"
15272 15276 context_used ";"
15272 15276 proof_check_time "0.000"
15534 15540 VernacProof "tac:no using:no"
18263 18267 proof_build_time "0.021"
0 0 alist_of_Map_semantics_1 "0.021"
18263 18267 context_used ";"
18263 18267 proof_check_time "0.007"
18378 18384 VernacProof "tac:no using:no"
18516 18520 proof_build_time "0.001"
0 0 alist_of_Map_semantics "0.001"
18516 18520 context_used ";"
18516 18520 proof_check_time "0.000"
18774 18780 VernacProof "tac:no using:no"
19197 19201 proof_build_time "0.004"
0 0 Map_of_alist_semantics "0.004"
19197 19201 context_used ";"
19197 19201 proof_check_time "0.001"
19297 19303 VernacProof "tac:no using:no"
19500 19504 proof_build_time "0.001"
0 0 Map_of_alist_of_Map "0.001"
19500 19504 context_used ";"
19500 19504 proof_check_time "0.000"
19648 19654 VernacProof "tac:no using:no"
19822 19826 proof_build_time "0.001"
0 0 alist_of_Map_of_alist "0.001"
19822 19826 context_used ";"
19822 19826 proof_check_time "0.000"
20390 20396 VernacProof "tac:no using:no"
20569 20573 proof_build_time "0.004"
0 0 fold_right_aapp "0.004"
20569 20573 context_used ";"
20569 20573 proof_check_time "0.002"
21067 21073 VernacProof "tac:no using:no"
21355 21359 proof_build_time "0.005"
0 0 MapFold_as_fold_1 "0.005"
21355 21359 context_used ";"
21355 21359 proof_check_time "0.002"
21757 21763 VernacProof "tac:no using:no"
21848 21852 proof_build_time "0.000"
0 0 MapFold_as_fold "0.000"
21848 21852 context_used ";"
21848 21852 proof_check_time "0.000"
22043 22049 VernacProof "tac:no using:no"
22317 22321 proof_build_time "0.002"
0 0 alist_MapMerge_semantics "0.002"
22317 22321 context_used ";"
22317 22321 proof_check_time "0.001"
22569 22575 VernacProof "tac:no using:no"
23249 23253 proof_build_time "0.006"
0 0 alist_MapMerge_semantics_disjoint "0.006"
23249 23253 context_used ";"
23249 23253 proof_check_time "0.002"
23469 23475 VernacProof "tac:no using:no"
24103 24107 proof_build_time "0.003"
0 0 alist_semantics_disjoint_comm "0.003"
24103 24107 context_used ";"
24103 24107 proof_check_time "0.001"
0 0 vo_compile_time "0.495"
