COQAUX1 2151b5fcbe1dd6a9e85d4234c384b5df /home/masie11/sat/coq-checker/rat/SetClause.v
76 117 context_used ";"
141 231 context_used ";"
141 231 context_used ";"
141 231 context_used ";"
235 341 context_used ";"
569 573 proof_build_time "0.006"
0 0 literal_eq_dec "0.006"
569 573 context_used ";"
569 573 proof_check_time "0.001"
577 745 context_used ";"
888 892 proof_build_time "0.001"
0 0 L_satisfies_neg "0.001"
888 892 context_used ";"
888 892 proof_check_time "0.000"
1045 1049 proof_build_time "0.001"
0 0 L_satisfies_neg_neg "0.001"
1045 1049 context_used ";"
1045 1049 proof_check_time "0.000"
1169 1173 proof_build_time "0.001"
0 0 L_satisfies_dec "0.001"
1169 1173 context_used ";"
1169 1173 proof_check_time "0.000"
1197 1411 context_used ";"
1662 1666 proof_build_time "0.006"
0 0 eq_Lit_compare "0.006"
1662 1666 context_used ";"
1662 1666 proof_check_time "0.001"
1781 1785 proof_build_time "0.001"
0 0 Lit_compare_eq "0.001"
1781 1785 context_used ";"
1781 1785 proof_check_time "0.000"
2272 2276 proof_build_time "0.006"
0 0 Lit_compare_trans "0.006"
2272 2276 context_used ";"
2272 2276 proof_check_time "0.002"
2499 2503 proof_build_time "0.003"
0 0 Lit_compare_sym_Gt "0.003"
2499 2503 context_used ";"
2499 2503 proof_check_time "0.001"
2726 2730 proof_build_time "0.003"
0 0 Lit_compare_sym_Lt "0.003"
2726 2730 context_used ";"
2726 2730 proof_check_time "0.001"
2786 2820 context_used ";"
2824 2977 context_used ";"
3258 3262 proof_build_time "0.003"
0 0 C_satisfies_exists "0.003"
3258 3262 context_used ";"
3258 3262 proof_check_time "0.001"
3463 3467 proof_build_time "0.002"
0 0 exists_C_satisfies "0.002"
3463 3467 context_used ";"
3463 3467 proof_check_time "0.000"
3678 3682 proof_build_time "0.047"
0 0 C_satisfies_dec "0.047"
3678 3682 context_used ";"
3678 3682 proof_check_time "0.001"
3686 3752 context_used ";"
3754 3829 context_used ";"
3937 4016 context_used ";"
4068 4072 proof_build_time "0.000"
0 0 C_unsat_empty "0.000"
4068 4072 context_used ";"
4068 4072 proof_check_time "0.000"
4076 4126 context_used ";"
4236 4240 proof_build_time "0.001"
0 0 true_C_true "0.001"
4236 4240 context_used ";"
4236 4240 proof_check_time "0.000"
4477 4481 proof_build_time "0.002"
0 0 C_sat_clause "0.002"
4477 4481 context_used ";"
4477 4481 proof_check_time "0.000"
4782 4786 proof_build_time "0.145"
0 0 clause_eq_dec "0.145"
4782 4786 context_used ";"
4782 4786 proof_check_time "0.002"
4957 4961 proof_build_time "0.002"
0 0 clause_eq_nil_cons "0.002"
4957 4961 context_used ";"
4957 4961 proof_check_time "0.000"
4985 5305 context_used ";"
5698 5702 proof_build_time "0.009"
0 0 eq_Clause_compare "0.009"
5698 5702 context_used ";"
5698 5702 proof_check_time "0.001"
5829 5833 proof_build_time "0.001"
0 0 Clause_compare_eq "0.001"
5829 5833 context_used ";"
5829 5833 proof_check_time "0.000"
7326 7330 proof_build_time "0.055"
0 0 Clause_compare_trans "0.055"
7326 7330 context_used ";"
7326 7330 proof_check_time "0.011"
7781 7785 proof_build_time "0.006"
0 0 Clause_compare_sym_Gt "0.006"
7781 7785 context_used ";"
7781 7785 proof_check_time "0.001"
8236 8240 proof_build_time "0.006"
0 0 Clause_compare_sym_Lt "0.006"
8236 8240 context_used ";"
8236 8240 proof_check_time "0.001"
8299 8342 context_used ";"
8346 8390 context_used ";"
8392 8433 context_used ";"
8435 8481 context_used ";"
8483 8525 context_used ";"
8529 8680 context_used ";"
8874 8878 proof_build_time "0.001"
0 0 C_to_SC_wf "0.001"
8874 8878 context_used ";"
8874 8878 proof_check_time "0.000"
8882 9066 context_used ";"
9806 9810 proof_build_time "0.012"
0 0 list_append_split "0.012"
9806 9810 context_used ";"
9806 9810 proof_check_time "0.004"
10421 10425 proof_build_time "0.002"
0 0 C_to_SC_In_1 "0.002"
10421 10425 context_used ";"
10421 10425 proof_check_time "0.000"
10664 10668 proof_build_time "0.004"
0 0 SC_to_C_In_1 "0.004"
10664 10668 context_used ";"
10664 10668 proof_check_time "0.001"
10884 10888 proof_build_time "0.002"
0 0 C_to_SC_In_2 "0.002"
10884 10888 context_used ";"
10884 10888 proof_check_time "0.000"
11176 11180 proof_build_time "0.003"
0 0 SC_to_C_In_2 "0.003"
11176 11180 context_used ";"
11176 11180 proof_check_time "0.001"
12030 12034 proof_build_time "0.020"
0 0 SetClause_to_Clause_inv "0.020"
12030 12034 context_used ";"
12030 12034 proof_check_time "0.004"
12444 12448 proof_build_time "0.004"
0 0 SC_satisfies_exists "0.004"
12444 12448 context_used ";"
12444 12448 proof_check_time "0.001"
12667 12671 proof_build_time "0.001"
0 0 exists_SC_satisfies "0.001"
12667 12671 context_used ";"
12667 12671 proof_check_time "0.000"
12978 12982 proof_build_time "0.001"
0 0 C_to_C_satisfies_1 "0.001"
12978 12982 context_used ";"
12978 12982 proof_check_time "0.000"
13289 13293 proof_build_time "0.001"
0 0 C_to_C_satisfies_2 "0.001"
13289 13293 context_used ";"
13289 13293 proof_check_time "0.000"
13447 13532 context_used ";"
14242 14246 proof_build_time "0.483"
0 0 SetClause_eq_dec "0.483"
14242 14246 context_used ";"
14242 14246 proof_check_time "0.004"
14474 14478 proof_build_time "0.002"
0 0 SetClause_eq_nil_cons "0.002"
14474 14478 context_used ";"
14474 14478 proof_check_time "0.000"
0 0 vo_compile_time "1.176"
