COQAUX1 efbfa6882348303409b4365826b6ebe1 /home/masie11/sat/coq-checker/rat/SetICNF.v
70 106 context_used ";"
110 151 context_used ";"
153 203 context_used ";"
205 247 context_used ";"
249 300 context_used ";"
302 346 context_used ";"
671 675 proof_build_time "0.654"
0 0 CNF_eq_dec "0.654"
671 675 context_used ";"
671 675 proof_check_time "0.004"
679 856 context_used ";"
1140 1144 proof_build_time "0.003"
0 0 satisfies_forall "0.003"
1140 1144 context_used ";"
1140 1144 proof_check_time "0.001"
1300 1304 proof_build_time "0.002"
0 0 forall_satisfies "0.002"
1300 1304 context_used ";"
1300 1304 proof_check_time "0.000"
1597 1601 proof_build_time "0.002"
0 0 satisfies_remove "0.002"
1597 1601 context_used ";"
1597 1601 proof_check_time "0.000"
1869 1873 proof_build_time "0.010"
0 0 satisfies_dec "0.010"
1869 1873 context_used ";"
1869 1873 proof_check_time "0.002"
1877 1983 context_used ";"
1987 2059 context_used ";"
2471 2475 proof_build_time "0.001"
0 0 unsat_subset "0.001"
2471 2475 context_used ";"
2471 2475 proof_check_time "0.000"
2600 2604 proof_build_time "0.000"
0 0 CNF_empty "0.000"
2600 2604 context_used ";"
2600 2604 proof_check_time "0.000"
2925 2974 context_used ";"
2978 3015 context_used ";"
3019 3264 context_used ";"
3549 3553 proof_build_time "0.003"
0 0 ICNF_to_CNF_wf "0.003"
3549 3553 context_used ";"
3549 3553 proof_check_time "0.001"
4136 4140 proof_build_time "0.021"
0 0 ICNF_get_in "0.021"
4136 4140 context_used ";"
4136 4140 proof_check_time "0.004"
4862 4866 proof_build_time "0.020"
0 0 in_ICNF_get "0.020"
4862 4866 context_used ";"
4862 4866 proof_check_time "0.006"
5539 5543 proof_build_time "0.020"
0 0 in_ICNF_get' "0.020"
5539 5543 context_used ";"
5539 5543 proof_check_time "0.006"
5547 5687 context_used ";"
6093 6097 proof_build_time "0.004"
0 0 get_ICNF_wf "0.004"
6093 6097 context_used ";"
6093 6097 proof_check_time "0.001"
6729 6733 proof_build_time "0.022"
0 0 get_ICNF_in_or_default "0.022"
6729 6733 context_used ";"
6729 6733 proof_check_time "0.007"
6737 6797 context_used ";"
7611 7615 proof_build_time "0.013"
0 0 ICNF_get_del "0.013"
7611 7615 context_used ";"
7611 7615 proof_check_time "0.004"
7997 8001 proof_build_time "0.003"
0 0 MapRemove_in "0.003"
7997 8001 context_used ";"
7997 8001 proof_check_time "0.001"
8275 8279 proof_build_time "0.005"
0 0 del_ICNF_in "0.005"
8275 8279 context_used ";"
8275 8279 proof_check_time "0.001"
9878 9964 context_used ";"
11509 11513 proof_build_time "0.039"
0 0 MapPut1_in "0.039"
11509 11513 context_used ";"
11509 11513 proof_check_time "0.004"
12715 12719 proof_build_time "0.030"
0 0 MapPut_in "0.030"
12715 12719 context_used ";"
12715 12719 proof_check_time "0.006"
13060 13064 proof_build_time "0.002"
0 0 add_ICNF_unsat "0.002"
13060 13064 context_used ";"
13060 13064 proof_check_time "0.000"
0 0 vo_compile_time "1.217"
