COQAUX1 f8a212c638d0fbcede7127fd9efeeb81 /home/masie11/sat/coq-checker/rat/SetChecker.v
750 754 proof_build_time "0.010"
0 0 SC_in_add "0.010"
750 754 context_used ";"
750 754 proof_check_time "0.001"
1885 1889 proof_build_time "0.008"
0 0 propagate_singleton "0.008"
1885 1889 context_used ";"
1885 1889 proof_check_time "0.001"
2577 2581 proof_build_time "0.004"
0 0 propagate_empty "0.004"
2577 2581 context_used ";"
2577 2581 proof_check_time "0.001"
2943 2947 proof_build_time "0.001"
0 0 propagate_entails "0.001"
2943 2947 context_used ";"
2943 2947 proof_check_time "0.000"
3240 3244 proof_build_time "0.001"
0 0 propagate_true "0.001"
3240 3244 context_used ";"
3240 3244 proof_check_time "0.000"
3297 3942 context_used ";"
4806 4810 proof_build_time "0.075"
0 0 propagate_sound "0.075"
4806 4810 context_used ";"
4806 4810 proof_check_time "0.006"
10073 10077 proof_build_time "0.080"
0 0 RAT_lemma_1 "0.080"
10073 10077 context_used ";"
10073 10077 proof_check_time "0.011"
10442 10446 proof_build_time "0.002"
0 0 RAT_lemma_2 "0.002"
10442 10446 context_used ";"
10442 10446 proof_check_time "0.000"
11070 11074 proof_build_time "0.002"
0 0 RAT_lemma_3 "0.002"
11070 11074 context_used ";"
11070 11074 proof_check_time "0.001"
13080 13084 proof_build_time "0.021"
0 0 RAT_lemma_4 "0.021"
13080 13084 context_used ";"
13080 13084 proof_check_time "0.004"
13088 13280 context_used ";"
13284 13404 context_used ";"
13408 13497 context_used ";"
13501 14614 context_used ";"
14618 14770 context_used ";"
14774 14944 context_used ";"
15144 15148 proof_build_time "0.005"
0 0 double_all_index "0.005"
15144 15148 context_used ";"
15144 15148 proof_check_time "0.002"
15366 15370 proof_build_time "0.005"
0 0 double_all_add_one_index "0.005"
15366 15370 context_used ";"
15366 15370 proof_check_time "0.011"
15374 15611 context_used ";"
16452 16456 proof_build_time "0.026"
0 0 ICNF_to_list_in "0.026"
16452 16456 context_used ";"
16452 16456 proof_check_time "0.005"
16460 16633 context_used ";"
17357 17361 proof_build_time "0.003"
0 0 propagate_RAT_1 "0.003"
17357 17361 context_used ";"
17357 17361 proof_check_time "0.001"
18621 18625 proof_build_time "0.014"
0 0 propagate_RAT_2 "0.014"
18621 18625 context_used ";"
18621 18625 proof_check_time "0.001"
22120 22124 proof_build_time "0.194"
0 0 propagate_RAT_3 "0.194"
22120 22124 context_used ";"
22120 22124 proof_check_time "0.029"
25737 25741 proof_build_time "0.100"
0 0 RAT_run_lemma "0.100"
25737 25741 context_used ";"
25737 25741 proof_check_time "0.026"
27755 27759 proof_build_time "0.028"
0 0 RAT_theorem "0.028"
27755 27759 context_used ";"
27755 27759 proof_check_time "0.006"
27798 28022 context_used ";"
27798 28022 context_used ";"
27798 28022 context_used ";"
28026 28059 context_used ";"
28063 28172 context_used ";"
28063 28172 context_used ";"
28063 28172 context_used ";"
28176 28222 context_used ";"
28280 28454 context_used ";"
28458 28496 context_used ";"
28500 28537 context_used ";"
28539 28578 context_used ";"
28582 28632 context_used ";"
28636 29322 context_used ";"
29650 29658 proof_build_time "0.002"
29650 29658 context_used ";"
29650 29658 context_used ";"
29650 29658 context_used ";"
29650 29658 context_used ";"
29650 29658 context_used ";"
29650 29658 context_used ";"
29650 29658 context_used ";"
29650 29658 context_used ";"
29650 29658 context_used ";"
29650 29658 context_used ";"
29650 29658 context_used ";"
29650 29658 context_used ";"
29650 29658 proof_check_time "0.894"
29662 29786 context_used ";"
31331 31335 proof_build_time "0.036"
0 0 refute_work_correct "0.036"
31331 31335 context_used ";"
31331 31335 proof_check_time "0.015"
31339 31466 context_used ";"
31638 31642 proof_build_time "0.001"
0 0 make_CNF_wf "0.001"
31638 31642 context_used ";"
31638 31642 proof_check_time "0.000"
31646 31803 context_used ";"
32449 32453 proof_build_time "0.020"
0 0 ICNF_eq_empty_dec "0.020"
32449 32453 context_used ";"
32449 32453 proof_check_time "0.006"
32457 32622 context_used ";"
33158 33162 proof_build_time "0.010"
0 0 refute_correct "0.010"
33158 33162 context_used ";"
33158 33162 proof_check_time "0.002"
33166 33236 context_used ";"
33500 33504 proof_build_time "0.002"
0 0 Clause_equivalent_impl "0.002"
33500 33504 context_used ";"
33500 33504 proof_check_time "0.000"
33704 33708 proof_build_time "0.007"
0 0 Clause_equivalent "0.007"
33704 33708 context_used ";"
33704 33708 proof_check_time "0.003"
35300 35304 proof_build_time "0.014"
0 0 Clause_equivalent_dec "0.014"
35300 35304 context_used ";"
35300 35304 proof_check_time "0.002"
36077 36081 proof_build_time "0.010"
0 0 ICNF_has_equiv "0.010"
36077 36081 context_used ";"
36077 36081 proof_check_time "0.003"
36614 36618 proof_build_time "0.004"
0 0 ICNF_all_in_dec "0.004"
36614 36618 context_used ";"
36614 36618 proof_check_time "0.001"
37234 37238 proof_build_time "0.023"
0 0 MapGet_make_ICNF_in "0.023"
37234 37238 context_used ";"
37234 37238 proof_check_time "0.004"
37242 37440 context_used ";"
38725 38729 proof_build_time "0.018"
0 0 entails_correct "0.018"
38725 38729 context_used ";"
38725 38729 proof_check_time "0.003"
0 0 vo_compile_time "2.279"
