COQAUX1 f24a72e7b1e8350f582c9d9186d49a04 /home/masie11/sat/coq-checker/pure/Basic.v
188 192 proof_build_time "0.002"
0 0 compare_Lt_dec "0.002"
188 192 context_used ";"
188 192 proof_check_time "0.000"
293 297 proof_build_time "0.002"
0 0 compare_Gt_dec "0.002"
293 297 context_used ";"
293 297 proof_check_time "0.000"
398 402 proof_build_time "0.002"
0 0 compare_Eq_dec "0.002"
398 402 context_used ";"
398 402 proof_check_time "0.000"
550 554 proof_build_time "0.001"
0 0 nat_compare_eq_rev "0.001"
550 554 context_used ";"
550 554 proof_check_time "0.000"
704 708 proof_build_time "0.002"
0 0 nat_compare_sym_lt "0.002"
704 708 context_used ";"
704 708 proof_check_time "0.001"
858 862 proof_build_time "0.002"
0 0 nat_compare_sym_gt "0.002"
858 862 context_used ";"
858 862 proof_check_time "0.001"
1168 1172 proof_build_time "0.002"
0 0 nat_compare_trans "0.002"
1168 1172 context_used ";"
1168 1172 proof_check_time "0.001"
1412 1416 proof_build_time "0.009"
0 0 Zabs_le_1 "0.009"
1412 1416 context_used ";"
1412 1416 proof_check_time "0.001"
1650 1654 proof_build_time "0.008"
0 0 Zabs_diff_le_1 "0.008"
1650 1654 context_used ";"
1650 1654 proof_check_time "0.003"
1973 1977 proof_build_time "0.003"
0 0 in_remove "0.003"
1973 1977 context_used ";"
1973 1977 proof_check_time "0.001"
2327 2331 proof_build_time "0.004"
0 0 remove_all_orig "0.004"
2327 2331 context_used ";"
2327 2331 proof_check_time "0.001"
2398 2477 context_used ";"
0 0 vo_compile_time "0.365"
