COQAUX1 709d3b53409c6c26ba2b9f0ceadc62f1 /home/masie11/sat/coq-checker/pure/BinaryTrees.v
2399 2403 proof_build_time "0.024"
0 0 BT_rot_L_wf "0.024"
2399 2403 context_used "T_compare_sym_Lt T_compare_sym_Gt T_compare_trans T_compare_eq eq_T_compare;"
2399 2403 proof_check_time "0.002"
2652 2656 proof_build_time "0.010"
0 0 BT_rot_L_in "0.010"
2652 2656 context_used ";"
2652 2656 proof_check_time "0.001"
2905 2909 proof_build_time "0.008"
0 0 BT_in_rot_L "0.008"
2905 2909 context_used ";"
2905 2909 proof_check_time "0.001"
3462 3466 proof_build_time "0.067"
0 0 BT_rot_L_wf_rev "0.067"
3462 3466 context_used "T_compare_sym_Lt T_compare_sym_Gt T_compare_trans T_compare_eq eq_T_compare;"
3462 3466 proof_check_time "0.002"
4213 4217 proof_build_time "0.022"
0 0 BT_rot_R_wf "0.022"
4213 4217 context_used "T_compare_sym_Lt T_compare_sym_Gt T_compare_trans T_compare_eq eq_T_compare;"
4213 4217 proof_check_time "0.002"
4466 4470 proof_build_time "0.008"
0 0 BT_rot_R_in "0.008"
4466 4470 context_used ";"
4466 4470 proof_check_time "0.001"
4719 4723 proof_build_time "0.009"
0 0 BT_in_rot_R "0.009"
4719 4723 context_used ";"
4719 4723 proof_check_time "0.001"
5274 5278 proof_build_time "0.022"
0 0 BT_rot_R_wf_rev "0.022"
5274 5278 context_used "T_compare_sym_Lt T_compare_sym_Gt T_compare_trans T_compare_eq eq_T_compare;"
5274 5278 proof_check_time "0.002"
5728 5732 proof_build_time "0.005"
0 0 BT_rot_LL_wf "0.005"
5728 5732 context_used "T_compare_sym_Lt T_compare_sym_Gt T_compare_trans T_compare_eq eq_T_compare;"
5728 5732 proof_check_time "0.001"
5994 5998 proof_build_time "0.005"
0 0 BT_rot_LL_in "0.005"
5994 5998 context_used ";"
5994 5998 proof_check_time "0.001"
6282 6286 proof_build_time "0.005"
0 0 BT_in_rot_LL "0.005"
6282 6286 context_used ";"
6282 6286 proof_check_time "0.001"
6764 6768 proof_build_time "0.005"
0 0 BT_rot_RR_wf "0.005"
6764 6768 context_used "T_compare_sym_Lt T_compare_sym_Gt T_compare_trans T_compare_eq eq_T_compare;"
6764 6768 proof_check_time "0.001"
6995 6999 proof_build_time "0.003"
0 0 BT_rot_RR_in "0.003"
6995 6999 context_used ";"
6995 6999 proof_check_time "0.000"
7248 7252 proof_build_time "0.003"
0 0 BT_in_rot_RR "0.003"
7248 7252 context_used ";"
7248 7252 proof_check_time "0.000"
8667 8671 proof_build_time "0.011"
0 0 BT_balance_wf "0.011"
8667 8671 context_used "T_compare_sym_Lt T_compare_sym_Gt T_compare_trans T_compare_eq eq_T_compare;"
8667 8671 proof_check_time "0.003"
9112 9116 proof_build_time "0.017"
0 0 BT_balance_in "0.017"
9112 9116 context_used ";"
9112 9116 proof_check_time "0.003"
9557 9561 proof_build_time "0.010"
0 0 BT_in_balance "0.010"
9557 9561 context_used ";"
9557 9561 proof_check_time "0.003"
10284 10288 proof_build_time "0.004"
0 0 BT_add_in "0.004"
10284 10288 context_used "T_compare_eq eq_T_compare;"
10284 10288 proof_check_time "0.001"
10843 10847 proof_build_time "0.018"
0 0 BT_in_add "0.018"
10843 10847 context_used ";"
10843 10847 proof_check_time "0.001"
11390 11394 proof_build_time "0.020"
0 0 BT_wf_add "0.020"
11390 11394 context_used "T_compare_sym_Lt T_compare_sym_Gt T_compare_trans T_compare_eq eq_T_compare;"
11390 11394 proof_check_time "0.002"
11965 11969 proof_build_time "0.015"
0 0 BT_add_mon "0.015"
11965 11969 context_used "eq_T_compare;"
11965 11969 proof_check_time "0.002"
17312 17316 proof_build_time "0.022"
0 0 BT_split_in_r "0.022"
17312 17316 context_used "eq_T_compare T_compare;"
17312 17316 proof_check_time "0.004"
17989 17993 proof_build_time "0.014"
0 0 BT_split_wf "0.014"
17989 17993 context_used "eq_T_compare;"
17989 17993 proof_check_time "0.003"
18551 18555 proof_build_time "0.017"
0 0 BT_split_in_l "0.017"
18551 18555 context_used "T_compare_eq eq_T_compare T_compare;"
18551 18555 proof_check_time "0.003"
19344 19348 proof_build_time "0.020"
0 0 BT_split_in "0.020"
19344 19348 context_used "T_compare_eq eq_T_compare T_compare;"
19344 19348 proof_check_time "0.003"
20915 20919 proof_build_time "0.037"
0 0 BT_split_compare "0.037"
20915 20919 context_used "T_compare_sym_Lt T_compare_sym_Gt T_compare_trans T_compare_eq eq_T_compare;"
20915 20919 proof_check_time "0.004"
21705 21709 proof_build_time "0.019"
0 0 BT_in_dec "0.019"
21705 21709 context_used "T_compare_eq eq_T_compare;"
21705 21709 proof_check_time "0.002"
22295 22299 proof_build_time "0.009"
0 0 BT_all_in_dec "0.009"
22295 22299 context_used "T_compare_eq eq_T_compare;"
22295 22299 proof_check_time "0.001"
23808 23812 proof_build_time "0.022"
0 0 BT_remove_in "0.022"
23808 23812 context_used "T_compare_eq eq_T_compare;"
23808 23812 proof_check_time "0.003"
25015 25019 proof_build_time "0.036"
0 0 BT_remove_wf "0.036"
25015 25019 context_used "T_compare_sym_Lt T_compare_sym_Gt T_compare_trans T_compare_eq eq_T_compare;"
25015 25019 proof_check_time "0.003"
26352 26356 proof_build_time "0.050"
0 0 BT_remove_in_rev "0.050"
26352 26356 context_used "T_compare_eq eq_T_compare;"
26352 26356 proof_check_time "0.003"
26984 26988 proof_build_time "0.003"
0 0 BT_diff_wf "0.003"
26984 26988 context_used "T_compare_sym_Lt T_compare_sym_Gt T_compare_trans T_compare_eq eq_T_compare;"
26984 26988 proof_check_time "0.001"
27328 27332 proof_build_time "0.016"
0 0 BT_diff_in "0.016"
27328 27332 context_used "T_compare_eq eq_T_compare;"
27328 27332 proof_check_time "0.000"
27835 27839 proof_build_time "0.009"
0 0 BT_diff_in_rev "0.009"
27835 27839 context_used "T_compare_eq eq_T_compare;"
27835 27839 proof_check_time "0.001"
28184 28188 proof_build_time "0.002"
0 0 in_list_BTree "0.002"
28184 28188 context_used "T_compare_eq eq_T_compare;"
28184 28188 proof_check_time "0.000"
28332 28336 proof_build_time "0.003"
0 0 in_BTree_list "0.003"
28332 28336 context_used ";"
28332 28336 proof_check_time "0.000"
28466 28470 proof_build_time "0.001"
0 0 list_to_BTree_wf "0.001"
28466 28470 context_used "T_compare_sym_Lt T_compare_sym_Gt T_compare_trans T_compare_eq eq_T_compare;"
28466 28470 proof_check_time "0.000"
29621 29625 proof_build_time "0.020"
0 0 BT_size_split "0.020"
29621 29625 context_used ";"
29621 29625 proof_check_time "0.004"
29972 29976 proof_build_time "0.001"
0 0 BT_wf_add_all "0.001"
29972 29976 context_used "T_compare_sym_Lt T_compare_sym_Gt T_compare_trans T_compare_eq eq_T_compare;"
29972 29976 proof_check_time "0.000"
30367 30371 proof_build_time "0.001"
0 0 BT_add_all_mon "0.001"
30367 30371 context_used "eq_T_compare;"
30367 30371 proof_check_time "0.000"
30681 30685 proof_build_time "0.003"
0 0 BT_add_all_in "0.003"
30681 30685 context_used "T_compare_eq eq_T_compare;"
30681 30685 proof_check_time "0.000"
30978 30982 proof_build_time "0.007"
0 0 BT_in_add_all "0.007"
30978 30982 context_used ";"
30978 30982 proof_check_time "0.001"
31463 31467 proof_build_time "0.003"
0 0 BT_map_in "0.003"
31463 31467 context_used "T_compare_eq eq_T_compare;"
31463 31467 proof_check_time "0.001"
0 0 vo_compile_time "1.093"
