COQAUX1 5fc0973863e562cd15ca4e86f815958a /home/masie11/sat/coq-checker/pure/Fset.v
1664 1670 VernacProof "tac:no using:no"
3037 3041 proof_build_time "0.013"
0 0 MapDomRestrTo_semantics "0.013"
3037 3041 context_used ";"
3037 3041 proof_check_time "0.004"
3810 3816 VernacProof "tac:no using:no"
5086 5090 proof_build_time "0.014"
0 0 MapDomRestrBy_semantics "0.014"
5086 5090 context_used ";"
5086 5090 proof_check_time "0.005"
5266 5272 VernacProof "tac:no using:no"
5288 5292 proof_build_time "0.000"
0 0 in_dom_M0 "0.000"
5288 5292 context_used ";"
5288 5292 proof_check_time "0.000"
5374 5380 VernacProof "tac:no using:no"
5464 5468 proof_build_time "0.001"
0 0 in_dom_M1 "0.001"
5464 5468 context_used ";"
5464 5468 proof_check_time "0.000"
5543 5549 VernacProof "tac:no using:no"
5603 5607 proof_build_time "0.001"
0 0 in_dom_M1_1 "0.001"
5603 5607 context_used ";"
5603 5607 proof_check_time "0.000"
5699 5705 VernacProof "tac:no using:no"
5793 5797 proof_build_time "0.001"
0 0 in_dom_M1_2 "0.001"
5793 5797 context_used ";"
5793 5797 proof_check_time "0.000"
5910 5916 VernacProof "tac:no using:no"
6046 6050 proof_build_time "0.001"
0 0 in_dom_some "0.001"
6046 6050 context_used ";"
6046 6050 proof_check_time "0.001"
6147 6153 VernacProof "tac:no using:no"
6309 6313 proof_build_time "0.001"
0 0 in_dom_none "0.001"
6309 6313 context_used ";"
6309 6313 proof_check_time "0.001"
6446 6452 VernacProof "tac:no using:no"
6773 6777 proof_build_time "0.005"
0 0 in_dom_put "0.005"
6773 6777 context_used ";"
6773 6777 proof_check_time "0.001"
6924 6930 VernacProof "tac:no using:no"
7251 7255 proof_build_time "0.005"
0 0 in_dom_put_behind "0.005"
7251 7255 context_used ";"
7251 7255 proof_check_time "0.001"
7387 7393 VernacProof "tac:no using:no"
7694 7698 proof_build_time "0.004"
0 0 in_dom_remove "0.004"
7694 7698 context_used ";"
7694 7698 proof_check_time "0.001"
7822 7828 VernacProof "tac:no using:no"
8084 8088 proof_build_time "0.004"
0 0 in_dom_merge "0.004"
8084 8088 context_used ";"
8084 8088 proof_check_time "0.001"
8213 8219 VernacProof "tac:no using:no"
8475 8479 proof_build_time "0.004"
0 0 in_dom_delta "0.004"
8475 8479 context_used ";"
8475 8479 proof_check_time "0.002"
8683 8689 VernacProof "tac:no using:no"
8953 8957 proof_build_time "0.003"
0 0 in_dom_restrto "0.003"
8953 8957 context_used ";"
8953 8957 proof_check_time "0.001"
9117 9123 VernacProof "tac:no using:no"
9429 9433 proof_build_time "0.003"
0 0 in_dom_restrby "0.003"
9429 9433 context_used ";"
9429 9433 proof_check_time "0.001"
9447 9475 context_used ";"
9869 9875 VernacProof "tac:no using:no"
10461 10465 proof_build_time "0.004"
0 0 MapDom_semantics_1 "0.004"
10461 10465 context_used ";"
10461 10465 proof_check_time "0.002"
10595 10601 VernacProof "tac:no using:no"
11179 11183 proof_build_time "0.005"
0 0 MapDom_semantics_2 "0.005"
11179 11183 context_used ";"
11179 11183 proof_check_time "0.002"
11302 11308 VernacProof "tac:no using:no"
11478 11482 proof_build_time "0.001"
0 0 MapDom_semantics_3 "0.001"
11478 11482 context_used ";"
11478 11482 proof_check_time "0.001"
11601 11607 VernacProof "tac:no using:no"
11767 11771 proof_build_time "0.001"
0 0 MapDom_semantics_4 "0.001"
11767 11771 context_used ";"
11767 11771 proof_check_time "0.001"
11861 11867 VernacProof "tac:no using:no"
12147 12151 proof_build_time "0.002"
0 0 MapDom_Dom "0.002"
12147 12151 context_used ";"
12147 12151 proof_check_time "0.001"
12343 12349 VernacProof "tac:no using:no"
12383 12387 proof_build_time "0.000"
0 0 in_FSet_union "0.000"
12383 12387 context_used ";"
12383 12387 proof_check_time "0.000"
12590 12596 VernacProof "tac:no using:no"
12637 12641 proof_build_time "0.000"
0 0 in_FSet_inter "0.000"
12637 12641 context_used ";"
12637 12641 proof_check_time "0.000"
12848 12854 VernacProof "tac:no using:no"
12895 12899 proof_build_time "0.000"
0 0 in_FSet_diff "0.000"
12895 12899 context_used ";"
12895 12899 proof_check_time "0.000"
13092 13098 VernacProof "tac:no using:no"
13132 13136 proof_build_time "0.000"
0 0 in_FSet_delta "0.000"
13132 13136 context_used ";"
13132 13136 proof_check_time "0.000"
13204 13210 VernacProof "tac:no using:no"
13353 13357 proof_build_time "0.002"
0 0 FSet_Dom "0.002"
13353 13357 context_used ";"
13353 13357 proof_check_time "0.001"
0 0 vo_compile_time "0.457"
