COQAUX1 80f6ea4a0715994d251af3952a164607 /home/masie11/sat/coq-checker/pure/Lsort.v
1567 1573 VernacProof "tac:no using:no"
2117 2121 proof_build_time "0.009"
0 0 alist_sorted_imp_1 "0.009"
2117 2121 context_used ";"
2117 2121 proof_check_time "0.003"
2371 2377 VernacProof "tac:no using:no"
2605 2609 proof_build_time "0.001"
0 0 alist_sorted_1_imp_2 "0.001"
2605 2609 context_used ";"
2605 2609 proof_check_time "0.000"
2706 2712 VernacProof "tac:no using:no"
3197 3201 proof_build_time "0.008"
0 0 alist_sorted_2_imp "0.008"
3197 3201 context_used ";"
3197 3201 proof_check_time "0.003"
3301 3307 VernacProof "tac:no using:no"
3399 3403 proof_build_time "0.001"
0 0 app_length "0.001"
3399 3403 context_used ";"
3399 3403 proof_check_time "0.000"
3498 3504 VernacProof "tac:no using:no"
3540 3544 proof_build_time "0.000"
0 0 aapp_length "0.000"
3540 3544 context_used ";"
3540 3544 proof_check_time "0.000"
3685 3691 VernacProof "tac:no using:no"
3877 3881 proof_build_time "0.003"
0 0 alist_nth_ad_aapp_1 "0.003"
3877 3881 context_used ";"
3877 3881 proof_check_time "0.001"
4042 4048 VernacProof "tac:no using:no"
4165 4169 proof_build_time "0.002"
0 0 alist_nth_ad_aapp_2 "0.002"
4165 4169 context_used ";"
4165 4169 proof_check_time "0.001"
4291 4297 VernacProof "tac:no using:no"
4705 4709 proof_build_time "0.004"
0 0 interval_split "0.004"
4705 4709 context_used ";"
4705 4709 proof_check_time "0.001"
4995 5001 VernacProof "tac:no using:no"
6333 6337 proof_build_time "0.013"
0 0 alist_conc_sorted "0.013"
6333 6337 context_used ";"
6333 6337 proof_check_time "0.004"
6493 6499 VernacProof "tac:no using:no"
7008 7012 proof_build_time "0.006"
0 0 alist_nth_ad_semantics "0.006"
7008 7012 context_used ";"
7008 7012 proof_check_time "0.003"
7285 7291 VernacProof "tac:no using:no"
7455 7459 proof_build_time "0.001"
0 0 alist_of_Map_nth_ad "0.001"
7455 7459 context_used ";"
7455 7459 proof_check_time "0.001"
7627 7633 VernacProof "tac:no using:no"
7710 7714 proof_build_time "0.001"
0 0 Ndouble_monotonic "0.001"
7710 7714 context_used ";"
7710 7714 proof_check_time "0.000"
7786 7792 VernacProof "tac:no using:no"
7869 7873 proof_build_time "0.000"
0 0 Ndouble_plus_one_monotonic "0.000"
7869 7873 context_used ";"
7869 7873 proof_check_time "0.000"
8022 8028 VernacProof "tac:no using:no"
8101 8105 proof_build_time "0.000"
0 0 ad_comp_monotonic "0.000"
8101 8105 context_used ";"
8101 8105 proof_check_time "0.000"
8236 8242 VernacProof "tac:no using:no"
8323 8327 proof_build_time "0.000"
0 0 ad_comp_double_monotonic "0.000"
8323 8327 context_used ";"
8323 8327 proof_check_time "0.000"
8475 8481 VernacProof "tac:no using:no"
8571 8575 proof_build_time "0.000"
0 0 ad_comp_double_plus_un_monotonic "0.000"
8571 8575 context_used ";"
8571 8575 proof_check_time "0.000"
8799 8805 VernacProof "tac:no using:no"
9870 9874 proof_build_time "0.050"
0 0 alist_of_Map_sorts_1 "0.050"
9870 9874 context_used ";"
9870 9874 proof_check_time "0.002"
9966 9972 VernacProof "tac:no using:no"
10122 10126 proof_build_time "0.000"
0 0 alist_of_Map_sorts "0.000"
10122 10126 context_used ";"
10122 10126 proof_check_time "0.000"
10214 10220 VernacProof "tac:no using:no"
10286 10290 proof_build_time "0.000"
0 0 alist_of_Map_sorts1 "0.000"
10286 10290 context_used ";"
10286 10290 proof_check_time "0.000"
10379 10385 VernacProof "tac:no using:no"
10454 10458 proof_build_time "0.000"
0 0 alist_of_Map_sorts2 "0.000"
10454 10458 context_used ";"
10454 10458 proof_check_time "0.000"
10637 10643 VernacProof "tac:no using:no"
11626 11630 proof_build_time "0.008"
0 0 alist_too_low "0.008"
11626 11630 context_used ";"
11626 11630 proof_check_time "0.002"
11800 11806 VernacProof "tac:no using:no"
12262 12266 proof_build_time "0.005"
0 0 alist_semantics_nth_ad "0.005"
12262 12266 context_used ";"
12262 12266 proof_check_time "0.002"
12503 12509 VernacProof "tac:no using:no"
13162 13166 proof_build_time "0.005"
0 0 alist_semantics_tail "0.005"
13162 13166 context_used ";"
13162 13166 proof_check_time "0.002"
13467 13473 VernacProof "tac:no using:no"
13649 13653 proof_build_time "0.002"
0 0 alist_semantics_same_tail "0.002"
13649 13653 context_used ";"
13649 13653 proof_check_time "0.001"
13776 13782 VernacProof "tac:no using:no"
13922 13926 proof_build_time "0.001"
0 0 alist_sorted_tail "0.001"
13922 13926 context_used ";"
13922 13926 proof_check_time "0.001"
14093 14099 VernacProof "tac:no using:no"
15805 15809 proof_build_time "0.018"
0 0 alist_canonical "0.018"
15805 15809 context_used ";"
15805 15809 proof_check_time "0.005"
0 0 vo_compile_time "0.413"
