COQAUX1 39cb663300fb09e8447e179571b45298 /home/masie11/sat/coq-checker/pure/Mapc.v
1064 1070 VernacProof "tac:no using:no"
1225 1229 proof_build_time "0.001"
0 0 MapPut_as_Merge_c "0.001"
1225 1229 context_used ";"
1225 1229 proof_check_time "0.000"
1383 1389 VernacProof "tac:no using:no"
1558 1562 proof_build_time "0.001"
0 0 MapPut_behind_as_Merge_c "0.001"
1558 1562 context_used ";"
1558 1562 proof_check_time "0.000"
1636 1642 VernacProof "tac:no using:no"
1658 1662 proof_build_time "0.000"
0 0 MapMerge_empty_m_c "0.000"
1658 1662 context_used ";"
1658 1662 proof_check_time "0.000"
1859 1865 VernacProof "tac:no using:no"
2089 2093 proof_build_time "0.001"
0 0 MapMerge_assoc_c "0.001"
2089 2093 context_used ";"
2089 2093 proof_check_time "0.000"
2184 2190 VernacProof "tac:no using:no"
2309 2313 proof_build_time "0.001"
0 0 MapMerge_idempotent_c "0.001"
2309 2313 context_used ";"
2309 2313 proof_check_time "0.000"
2528 2534 VernacProof "tac:no using:no"
2744 2748 proof_build_time "0.001"
0 0 MapMerge_RestrTo_l_c "0.001"
2744 2748 context_used ";"
2744 2748 proof_check_time "0.000"
2901 2907 VernacProof "tac:no using:no"
3055 3059 proof_build_time "0.001"
0 0 MapRemove_as_RestrBy_c "0.001"
3055 3059 context_used ";"
3055 3059 proof_check_time "0.000"
3267 3273 VernacProof "tac:no using:no"
3479 3483 proof_build_time "0.001"
0 0 MapDomRestrTo_assoc_c "0.001"
3479 3483 context_used ";"
3479 3483 proof_check_time "0.000"
3586 3592 VernacProof "tac:no using:no"
3721 3725 proof_build_time "0.000"
0 0 MapDomRestrTo_idempotent_c "0.000"
3721 3725 context_used ";"
3721 3725 proof_check_time "0.000"
3880 3886 VernacProof "tac:no using:no"
4035 4039 proof_build_time "0.001"
0 0 MapDomRestrTo_Dom_c "0.001"
4035 4039 context_used ";"
4035 4039 proof_check_time "0.000"
4194 4200 VernacProof "tac:no using:no"
4349 4353 proof_build_time "0.001"
0 0 MapDomRestrBy_Dom_c "0.001"
4349 4353 context_used ";"
4349 4353 proof_check_time "0.000"
4543 4549 VernacProof "tac:no using:no"
4752 4756 proof_build_time "0.001"
0 0 MapDomRestrBy_By_c "0.001"
4752 4756 context_used ";"
4752 4756 proof_check_time "0.000"
4966 4972 VernacProof "tac:no using:no"
5183 5187 proof_build_time "0.001"
0 0 MapDomRestrBy_By_comm_c "0.001"
5183 5187 context_used ";"
5183 5187 proof_check_time "0.000"
5392 5398 VernacProof "tac:no using:no"
5577 5581 proof_build_time "0.001"
0 0 MapDomRestrBy_To_c "0.001"
5577 5581 context_used ";"
5577 5581 proof_check_time "0.000"
5791 5797 VernacProof "tac:no using:no"
6008 6012 proof_build_time "0.001"
0 0 MapDomRestrBy_To_comm_c "0.001"
6008 6012 context_used ";"
6008 6012 proof_check_time "0.000"
6217 6223 VernacProof "tac:no using:no"
6402 6406 proof_build_time "0.001"
0 0 MapDomRestrTo_By_c "0.001"
6402 6406 context_used ";"
6402 6406 proof_check_time "0.000"
6616 6622 VernacProof "tac:no using:no"
6833 6837 proof_build_time "0.001"
0 0 MapDomRestrTo_By_comm_c "0.001"
6833 6837 context_used ";"
6833 6837 proof_check_time "0.000"
7047 7053 VernacProof "tac:no using:no"
7264 7268 proof_build_time "0.001"
0 0 MapDomRestrTo_To_comm_c "0.001"
7264 7268 context_used ";"
7264 7268 proof_check_time "0.000"
7500 7506 VernacProof "tac:no using:no"
7748 7752 proof_build_time "0.001"
0 0 MapMerge_DomRestrTo_c "0.001"
7748 7752 context_used ";"
7748 7752 proof_check_time "0.000"
7984 7990 VernacProof "tac:no using:no"
8228 8232 proof_build_time "0.001"
0 0 MapMerge_DomRestrBy_c "0.001"
8228 8232 context_used ";"
8228 8232 proof_check_time "0.000"
8325 8331 VernacProof "tac:no using:no"
8453 8457 proof_build_time "0.001"
0 0 MapDelta_nilpotent_c "0.001"
8453 8457 context_used ";"
8453 8457 proof_check_time "0.000"
8646 8652 VernacProof "tac:no using:no"
8818 8822 proof_build_time "0.001"
0 0 MapDelta_as_Merge_c "0.001"
8818 8822 context_used ";"
8818 8822 proof_check_time "0.000"
9016 9022 VernacProof "tac:no using:no"
9193 9197 proof_build_time "0.001"
0 0 MapDelta_as_DomRestrBy_c "0.001"
9193 9197 context_used ";"
9193 9197 proof_check_time "0.000"
9393 9399 VernacProof "tac:no using:no"
9572 9576 proof_build_time "0.001"
0 0 MapDelta_as_DomRestrBy_2_c "0.001"
9572 9576 context_used ";"
9572 9576 proof_check_time "0.000"
9700 9706 VernacProof "tac:no using:no"
9836 9840 proof_build_time "0.001"
0 0 MapDelta_sym_c "0.001"
9836 9840 context_used ";"
9836 9840 proof_check_time "0.000"
9995 10001 VernacProof "tac:no using:no"
10185 10189 proof_build_time "0.001"
0 0 MapDom_Split_1_c "0.001"
10185 10189 context_used ";"
10185 10189 proof_check_time "0.000"
10344 10350 VernacProof "tac:no using:no"
10534 10538 proof_build_time "0.001"
0 0 MapDom_Split_2_c "0.001"
10534 10538 context_used ";"
10534 10538 proof_check_time "0.000"
10708 10714 VernacProof "tac:no using:no"
10868 10872 proof_build_time "0.001"
0 0 MapDom_Split_3_c "0.001"
10868 10872 context_used ";"
10868 10872 proof_check_time "0.000"
10982 10988 VernacProof "tac:no using:no"
11099 11103 proof_build_time "0.001"
0 0 Map_of_alist_of_Map_c "0.001"
11099 11103 context_used ";"
11099 11103 proof_check_time "0.000"
11228 11234 VernacProof "tac:no using:no"
11348 11352 proof_build_time "0.000"
0 0 alist_of_Map_of_alist_c "0.000"
11348 11352 context_used ";"
11348 11352 proof_check_time "0.000"
11536 11542 VernacProof "tac:no using:no"
11696 11700 proof_build_time "0.001"
0 0 MapSubset_antisym_c "0.001"
11696 11700 context_used ";"
11696 11700 proof_check_time "0.000"
11854 11860 VernacProof "tac:no using:no"
11956 11960 proof_build_time "0.000"
0 0 FSubset_antisym_c "0.000"
11956 11960 context_used ";"
11956 11960 proof_check_time "0.000"
12062 12068 VernacProof "tac:no using:no"
12183 12187 proof_build_time "0.001"
0 0 MapDisjoint_empty_c "0.001"
12183 12187 context_used ";"
12183 12187 proof_check_time "0.000"
12350 12356 VernacProof "tac:no using:no"
12503 12507 proof_build_time "0.001"
0 0 MapDelta_disjoint_c "0.001"
12503 12507 context_used ";"
12503 12507 proof_check_time "0.000"
12710 12716 VernacProof "tac:no using:no"
12936 12940 proof_build_time "0.001"
0 0 FSetDelta_assoc_c "0.001"
12936 12940 context_used ";"
12936 12940 proof_check_time "0.000"
13078 13084 VernacProof "tac:no using:no"
13169 13173 proof_build_time "0.000"
0 0 FSet_ext_c "0.000"
13169 13173 context_used ";"
13169 13173 proof_check_time "0.000"
13294 13300 VernacProof "tac:no using:no"
13436 13440 proof_build_time "0.001"
0 0 FSetUnion_comm_c "0.001"
13436 13440 context_used ";"
13436 13440 proof_check_time "0.000"
13628 13634 VernacProof "tac:no using:no"
13668 13672 proof_build_time "0.000"
0 0 FSetUnion_assoc_c "0.000"
13668 13672 context_used ";"
13668 13672 proof_check_time "0.000"
13741 13747 VernacProof "tac:no using:no"
13783 13787 proof_build_time "0.000"
0 0 FSetUnion_M0_s_c "0.000"
13783 13787 context_used ";"
13783 13787 proof_check_time "0.000"
13856 13862 VernacProof "tac:no using:no"
13898 13902 proof_build_time "0.000"
0 0 FSetUnion_s_M0_c "0.000"
13898 13902 context_used ";"
13898 13902 proof_check_time "0.000"
13987 13993 VernacProof "tac:no using:no"
14032 14036 proof_build_time "0.000"
0 0 FSetUnion_idempotent "0.000"
14032 14036 context_used ";"
14032 14036 proof_check_time "0.000"
14157 14163 VernacProof "tac:no using:no"
14304 14308 proof_build_time "0.001"
0 0 FSetInter_comm_c "0.001"
14304 14308 context_used ";"
14304 14308 proof_check_time "0.000"
14449 14455 VernacProof "tac:no using:no"
14504 14508 proof_build_time "0.000"
0 0 FSetInter_assoc_c "0.000"
14504 14508 context_used ";"
14504 14508 proof_check_time "0.000"
14583 14589 VernacProof "tac:no using:no"
14601 14605 proof_build_time "0.000"
0 0 FSetInter_M0_s_c "0.000"
14601 14605 context_used ";"
14601 14605 proof_check_time "0.000"
14680 14686 VernacProof "tac:no using:no"
14732 14736 proof_build_time "0.000"
0 0 FSetInter_s_M0_c "0.000"
14732 14736 context_used ";"
14732 14736 proof_check_time "0.000"
14821 14827 VernacProof "tac:no using:no"
14871 14875 proof_build_time "0.000"
0 0 FSetInter_idempotent "0.000"
14871 14875 context_used ";"
14871 14875 proof_check_time "0.000"
15061 15067 VernacProof "tac:no using:no"
15388 15392 proof_build_time "0.001"
0 0 FSetUnion_Inter_l_c "0.001"
15388 15392 context_used ";"
15388 15392 proof_check_time "0.000"
15573 15579 VernacProof "tac:no using:no"
15900 15904 proof_build_time "0.001"
0 0 FSetUnion_Inter_r "0.001"
15900 15904 context_used ";"
15900 15904 proof_check_time "0.000"
16089 16095 VernacProof "tac:no using:no"
16414 16418 proof_build_time "0.001"
0 0 FSetInter_Union_l_c "0.001"
16414 16418 context_used ";"
16414 16418 proof_check_time "0.000"
16599 16605 VernacProof "tac:no using:no"
16861 16865 proof_build_time "0.001"
0 0 FSetInter_Union_r "0.001"
16861 16865 context_used ";"
16861 16865 proof_check_time "0.000"
0 0 vo_compile_time "0.286"
