COQAUX1 73d98a80b8df14862cf3c786f53a44cc /home/masie11/sat/coq-checker/pure/Mapcard.v
997 1003 VernacProof "tac:no using:no"
1019 1023 proof_build_time "0.001"
0 0 MapCard_M0 "0.001"
1019 1023 context_used ";"
1019 1023 proof_check_time "0.000"
1095 1101 VernacProof "tac:no using:no"
1117 1121 proof_build_time "0.000"
0 0 MapCard_M1 "0.000"
1117 1121 context_used ";"
1117 1121 proof_check_time "0.000"
1220 1226 VernacProof "tac:no using:no"
1461 1465 proof_build_time "0.002"
0 0 MapCard_is_O "0.002"
1461 1465 context_used ";"
1461 1465 proof_check_time "0.001"
1591 1597 VernacProof "tac:no using:no"
2249 2253 proof_build_time "0.006"
0 0 MapCard_is_not_O "0.006"
2249 2253 context_used ";"
2249 2253 proof_check_time "0.001"
2370 2376 VernacProof "tac:no using:no"
2964 2968 proof_build_time "0.006"
0 0 MapCard_is_one "0.006"
2964 2968 context_used ";"
2964 2968 proof_check_time "0.002"
3163 3169 VernacProof "tac:no using:no"
5090 5094 proof_build_time "0.018"
0 0 MapCard_is_one_unique "0.018"
5090 5094 context_used ";"
5090 5094 proof_check_time "0.005"
5213 5219 VernacProof "tac:no using:no"
5310 5314 proof_build_time "0.001"
0 0 length_as_fold "0.001"
5310 5314 context_used ";"
5310 5314 proof_check_time "0.000"
5456 5462 VernacProof "tac:no using:no"
5561 5565 proof_build_time "0.003"
0 0 length_as_fold_2 "0.003"
5561 5565 context_used ";"
5561 5565 proof_check_time "0.001"
5703 5709 VernacProof "tac:no using:no"
5906 5910 proof_build_time "0.002"
0 0 MapCard_as_Fold_1 "0.002"
5906 5910 context_used ";"
5906 5910 proof_check_time "0.001"
6026 6032 VernacProof "tac:no using:no"
6093 6097 proof_build_time "0.000"
0 0 MapCard_as_Fold "0.000"
6093 6097 context_used ";"
6093 6097 proof_check_time "0.000"
6190 6196 VernacProof "tac:no using:no"
6439 6443 proof_build_time "0.002"
0 0 MapCard_as_length "0.002"
6439 6443 context_used ";"
6439 6443 proof_check_time "0.000"
6566 6572 VernacProof "tac:no using:no"
6864 6868 proof_build_time "0.003"
0 0 MapCard_Put1_equals_2 "0.003"
6864 6868 context_used ";"
6864 6868 proof_check_time "0.001"
7042 7048 VernacProof "tac:no using:no"
8592 8596 proof_build_time "0.015"
0 0 MapCard_Put_sum "0.015"
8592 8596 context_used ";"
8592 8596 proof_check_time "0.048"
8702 8708 VernacProof "tac:no using:no"
8978 8982 proof_build_time "0.002"
0 0 MapCard_Put_lb "0.002"
8978 8982 context_used ";"
8978 8982 proof_check_time "0.000"
9097 9103 VernacProof "tac:no using:no"
9354 9358 proof_build_time "0.002"
0 0 MapCard_Put_ub "0.002"
9354 9358 context_used ";"
9354 9358 proof_check_time "0.000"
9507 9513 VernacProof "tac:no using:no"
10495 10499 proof_build_time "0.008"
0 0 MapCard_Put_1 "0.008"
10495 10499 context_used ";"
10495 10499 proof_check_time "0.003"
10635 10641 VernacProof "tac:no using:no"
11847 11851 proof_build_time "0.012"
0 0 MapCard_Put_2 "0.012"
11847 11851 context_used ";"
11847 11851 proof_check_time "0.005"
11994 12000 VernacProof "tac:no using:no"
12262 12266 proof_build_time "0.002"
0 0 MapCard_Put_1_conv "0.002"
12262 12266 context_used ";"
12262 12266 proof_check_time "0.001"
12407 12413 VernacProof "tac:no using:no"
12694 12698 proof_build_time "0.002"
0 0 MapCard_Put_2_conv "0.002"
12694 12698 context_used ";"
12694 12698 proof_check_time "0.001"
12815 12821 VernacProof "tac:no using:no"
13308 13312 proof_build_time "0.003"
0 0 MapCard_ext "0.003"
13308 13312 context_used ";"
13308 13312 proof_check_time "0.001"
13395 13401 VernacProof "tac:no using:no"
13496 13500 proof_build_time "0.002"
0 0 MapCard_Dom "0.002"
13496 13500 context_used ";"
13496 13500 proof_check_time "0.001"
13638 13644 VernacProof "tac:no using:no"
14177 14181 proof_build_time "0.009"
0 0 MapCard_Dom_Put_behind "0.009"
14177 14181 context_used ";"
14177 14181 proof_check_time "0.003"
14321 14327 VernacProof "tac:no using:no"
14433 14437 proof_build_time "0.001"
0 0 MapCard_Put_behind_Put "0.001"
14433 14437 context_used ";"
14433 14437 proof_check_time "0.000"
14625 14631 VernacProof "tac:no using:no"
14773 14777 proof_build_time "0.001"
0 0 MapCard_Put_behind_sum "0.001"
14773 14777 context_used ";"
14773 14777 proof_check_time "0.000"
14884 14890 VernacProof "tac:no using:no"
14964 14968 proof_build_time "0.001"
0 0 MapCard_makeM2 "0.001"
14964 14968 context_used ";"
14964 14968 proof_check_time "0.000"
15141 15147 VernacProof "tac:no using:no"
16548 16552 proof_build_time "0.012"
0 0 MapCard_Remove_sum "0.012"
16548 16552 context_used ";"
16548 16552 proof_check_time "0.003"
16656 16662 VernacProof "tac:no using:no"
16916 16920 proof_build_time "0.001"
0 0 MapCard_Remove_ub "0.001"
16916 16920 context_used ";"
16916 16920 proof_check_time "0.000"
17028 17034 VernacProof "tac:no using:no"
17307 17311 proof_build_time "0.002"
0 0 MapCard_Remove_lb "0.002"
17307 17311 context_used ";"
17307 17311 proof_check_time "0.000"
17441 17447 VernacProof "tac:no using:no"
18268 18272 proof_build_time "0.006"
0 0 MapCard_Remove_1 "0.006"
18268 18272 context_used ";"
18268 18272 proof_check_time "0.002"
18423 18429 VernacProof "tac:no using:no"
19643 19647 proof_build_time "0.008"
0 0 MapCard_Remove_2 "0.008"
19643 19647 context_used ";"
19643 19647 proof_check_time "0.002"
19782 19788 VernacProof "tac:no using:no"
20111 20115 proof_build_time "0.002"
0 0 MapCard_Remove_1_conv "0.002"
20111 20115 context_used ";"
20111 20115 proof_check_time "0.001"
20262 20268 VernacProof "tac:no using:no"
20565 20569 proof_build_time "0.002"
0 0 MapCard_Remove_2_conv "0.002"
20565 20569 context_used ";"
20565 20569 proof_check_time "0.001"
20730 20736 VernacProof "tac:no using:no"
22088 22092 proof_build_time "0.011"
0 0 MapMerge_Restr_Card "0.011"
22088 22092 context_used ";"
22088 22092 proof_check_time "0.003"
22243 22249 VernacProof "tac:no using:no"
22377 22381 proof_build_time "0.001"
0 0 MapMerge_disjoint_Card "0.001"
22377 22381 context_used ";"
22377 22381 proof_check_time "0.000"
22538 22544 VernacProof "tac:no using:no"
22723 22727 proof_build_time "0.001"
0 0 MapSplit_Card "0.001"
22723 22727 context_used ";"
22723 22727 proof_check_time "0.000"
22844 22850 VernacProof "tac:no using:no"
22911 22915 proof_build_time "0.001"
0 0 MapMerge_Card_ub "0.001"
22911 22915 context_used ";"
22911 22915 proof_check_time "0.000"
23041 23047 VernacProof "tac:no using:no"
23109 23113 proof_build_time "0.000"
0 0 MapDomRestrTo_Card_ub_l "0.000"
23109 23113 context_used ";"
23109 23113 proof_check_time "0.000"
23239 23245 VernacProof "tac:no using:no"
23307 23311 proof_build_time "0.000"
0 0 MapDomRestrBy_Card_ub_l "0.000"
23307 23311 context_used ";"
23307 23311 proof_check_time "0.000"
23462 23468 VernacProof "tac:no using:no"
26425 26429 proof_build_time "0.018"
0 0 MapMerge_Card_disjoint "0.018"
26425 26429 context_used ";"
26425 26429 proof_check_time "0.004"
26544 26550 VernacProof "tac:no using:no"
27394 27398 proof_build_time "0.007"
0 0 MapCard_is_Sn "0.007"
27394 27398 context_used ";"
27394 27398 proof_check_time "0.002"
27621 27627 VernacProof "tac:no using:no"
29118 29122 proof_build_time "0.014"
0 0 MapSubset_card_eq_1 "0.014"
29118 29122 context_used ";"
29118 29122 proof_check_time "0.003"
29249 29255 VernacProof "tac:no using:no"
29965 29969 proof_build_time "0.005"
0 0 MapDomRestrTo_Card_ub_r "0.005"
29965 29969 context_used ";"
29965 29969 proof_check_time "0.001"
30127 30133 VernacProof "tac:no using:no"
30451 30455 proof_build_time "0.002"
0 0 MapMerge_Card_lb_l "0.002"
30451 30455 context_used ";"
30451 30455 proof_check_time "0.000"
30555 30561 VernacProof "tac:no using:no"
30859 30863 proof_build_time "0.001"
0 0 MapMerge_Card_lb_r "0.001"
30859 30863 context_used ";"
30859 30863 proof_check_time "0.000"
31002 31008 VernacProof "tac:no using:no"
31135 31139 proof_build_time "0.001"
0 0 MapDomRestrBy_Card_lb "0.001"
31135 31139 context_used ";"
31135 31139 proof_check_time "0.000"
31259 31265 VernacProof "tac:no using:no"
31511 31515 proof_build_time "0.001"
0 0 MapSubset_Card_le "0.001"
31511 31515 context_used ";"
31511 31515 proof_check_time "0.000"
31678 31684 VernacProof "tac:no using:no"
31952 31956 proof_build_time "0.001"
0 0 MapSubset_card_eq "0.001"
31952 31956 context_used ";"
31952 31956 proof_check_time "0.000"
0 0 vo_compile_time "0.583"
