COQAUX1 ab10004d4bf8d63b527af82aceb50e8b /home/masie11/sat/coq-checker/pure/Mapcanon.v
1331 1337 VernacProof "tac:no using:no"
1377 1381 proof_build_time "0.002"
0 0 mapcanon_M2 "0.002"
1377 1381 context_used ";"
1377 1381 proof_check_time "0.001"
1470 1476 VernacProof "tac:no using:no"
1516 1520 proof_build_time "0.002"
0 0 mapcanon_M2_1 "0.002"
1516 1520 context_used ";"
1516 1520 proof_check_time "0.001"
1609 1615 VernacProof "tac:no using:no"
1655 1659 proof_build_time "0.002"
0 0 mapcanon_M2_2 "0.002"
1655 1659 context_used ";"
1655 1659 proof_check_time "0.001"
1770 1776 VernacProof "tac:no using:no"
2000 2004 proof_build_time "0.001"
0 0 M2_eqmap_1 "0.001"
2000 2004 context_used ";"
2000 2004 proof_check_time "0.000"
2115 2121 VernacProof "tac:no using:no"
2381 2385 proof_build_time "0.001"
0 0 M2_eqmap_2 "0.001"
2381 2385 context_used ";"
2381 2385 proof_check_time "0.001"
2490 2496 VernacProof "tac:no using:no"
4069 4073 proof_build_time "0.012"
0 0 mapcanon_unique "0.012"
4069 4073 context_used ";"
4069 4073 proof_check_time "0.003"
4178 4184 VernacProof "tac:no using:no"
4879 4883 proof_build_time "0.005"
0 0 MapPut1_canon "0.005"
4879 4883 context_used ";"
4879 4883 proof_check_time "0.001"
4996 5002 VernacProof "tac:no using:no"
6329 6333 proof_build_time "0.006"
0 0 MapPut_canon "0.006"
6329 6333 context_used ";"
6329 6333 proof_check_time "0.002"
6460 6466 VernacProof "tac:no using:no"
7921 7925 proof_build_time "0.007"
0 0 MapPut_behind_canon "0.007"
7921 7925 context_used ";"
7921 7925 proof_check_time "0.002"
8029 8035 VernacProof "tac:no using:no"
8815 8819 proof_build_time "0.004"
0 0 makeM2_canon "0.004"
8815 8819 context_used ";"
8815 8819 proof_check_time "0.001"
9057 9063 VernacProof "tac:no using:no"
9400 9404 proof_build_time "0.003"
0 0 mapcanon_exists_1 "0.003"
9400 9404 context_used ";"
9400 9404 proof_check_time "0.001"
9482 9488 VernacProof "tac:no using:no"
9633 9637 proof_build_time "0.001"
0 0 mapcanon_exists_2 "0.001"
9633 9637 context_used ";"
9633 9637 proof_check_time "0.000"
9730 9736 VernacProof "tac:no using:no"
9843 9847 proof_build_time "0.000"
0 0 mapcanon_exists "0.000"
9843 9847 context_used ";"
9843 9847 proof_check_time "0.000"
9951 9957 VernacProof "tac:no using:no"
10328 10332 proof_build_time "0.002"
0 0 MapRemove_canon "0.002"
10328 10332 context_used ";"
10328 10332 proof_check_time "0.000"
10440 10446 VernacProof "tac:no using:no"
11103 11107 proof_build_time "0.003"
0 0 MapMerge_canon "0.003"
11103 11107 context_used ";"
11103 11107 proof_check_time "0.001"
11215 11221 VernacProof "tac:no using:no"
11806 11810 proof_build_time "0.049"
0 0 MapDelta_canon "0.049"
11806 11810 context_used ";"
11806 11810 proof_check_time "0.001"
11956 11962 VernacProof "tac:no using:no"
12420 12424 proof_build_time "0.002"
0 0 MapDomRestrTo_canon "0.002"
12420 12424 context_used ";"
12420 12424 proof_check_time "0.001"
12548 12554 VernacProof "tac:no using:no"
13136 13140 proof_build_time "0.003"
0 0 MapDomRestrBy_canon "0.003"
13136 13140 context_used ";"
13136 13140 proof_check_time "0.001"
13220 13226 VernacProof "tac:no using:no"
13354 13358 proof_build_time "0.001"
0 0 Map_of_alist_canon "0.001"
13354 13358 context_used ";"
13354 13358 proof_check_time "0.000"
13490 13496 VernacProof "tac:no using:no"
13634 13638 proof_build_time "0.001"
0 0 MapSubset_c_1 "0.001"
13634 13638 context_used ";"
13634 13638 proof_check_time "0.000"
13756 13762 VernacProof "tac:no using:no"
13857 13861 proof_build_time "0.001"
0 0 MapSubset_c_2 "0.001"
13857 13861 context_used ";"
13857 13861 proof_check_time "0.000"
14008 14014 VernacProof "tac:no using:no"
14368 14372 proof_build_time "0.002"
0 0 MapDom_canon "0.002"
14368 14372 context_used ";"
14368 14372 proof_check_time "0.000"
14856 14862 VernacProof "tac:no using:no"
15010 15014 proof_build_time "0.001"
0 0 MapFold_canon_1 "0.001"
15010 15014 context_used ";"
15010 15014 proof_check_time "0.001"
15401 15407 VernacProof "tac:no using:no"
15481 15485 proof_build_time "0.000"
0 0 MapFold_canon "0.000"
15481 15485 context_used ";"
15481 15485 proof_check_time "0.000"
15650 15656 VernacProof "tac:no using:no"
15802 15806 proof_build_time "0.001"
0 0 MapCollect_canon "0.001"
15802 15806 context_used ";"
15802 15806 proof_check_time "0.000"
0 0 vo_compile_time "0.368"
