COQAUX1 38ad7fc7f4c2b626a9173fbe2964fea8 /home/masie11/sat/coq-checker/pure/Map.v
818 837 context_used ";"
1185 1191 VernacProof "tac:no using:no"
1280 1284 proof_build_time "0.001"
0 0 option_sum "0.001"
1280 1284 context_used ";"
1280 1284 proof_check_time "0.001"
2037 2043 VernacProof "tac:no using:no"
2094 2098 proof_build_time "0.000"
0 0 newMap_semantics "0.000"
2094 2098 context_used ";"
2094 2098 proof_check_time "0.000"
2254 2260 VernacProof "tac:no using:no"
2311 2315 proof_build_time "0.000"
0 0 MapSingleton_semantics "0.000"
2311 2315 context_used ";"
2311 2315 proof_check_time "0.000"
2393 2399 VernacProof "tac:no using:no"
2476 2480 proof_build_time "0.001"
0 0 M1_semantics_1 "0.001"
2476 2480 context_used ";"
2476 2480 proof_check_time "0.000"
2584 2590 VernacProof "tac:no using:no"
2644 2648 proof_build_time "0.001"
0 0 M1_semantics_2 "0.001"
2644 2648 context_used ";"
2644 2648 proof_check_time "0.000"
2763 2769 VernacProof "tac:no using:no"
2825 2829 proof_build_time "0.001"
0 0 Map2_semantics_1 "0.001"
2825 2829 context_used ";"
2825 2829 proof_check_time "0.000"
2981 2987 VernacProof "tac:no using:no"
3095 3099 proof_build_time "0.001"
0 0 Map2_semantics_1_eq "0.001"
3095 3099 context_used ";"
3095 3099 proof_check_time "0.000"
3224 3230 VernacProof "tac:no using:no"
3286 3290 proof_build_time "0.000"
0 0 Map2_semantics_2 "0.000"
3286 3290 context_used ";"
3286 3290 proof_check_time "0.000"
3457 3463 VernacProof "tac:no using:no"
3580 3584 proof_build_time "0.001"
0 0 Map2_semantics_2_eq "0.001"
3580 3584 context_used ";"
3580 3584 proof_check_time "0.000"
3719 3725 VernacProof "tac:no using:no"
3847 3851 proof_build_time "0.002"
0 0 MapGet_M2_bit_0_0 "0.002"
3847 3851 context_used ";"
3847 3851 proof_check_time "0.001"
3986 3992 VernacProof "tac:no using:no"
4118 4122 proof_build_time "0.002"
0 0 MapGet_M2_bit_0_1 "0.002"
4118 4122 context_used ";"
4118 4122 proof_check_time "0.001"
4278 4284 VernacProof "tac:no using:no"
4455 4459 proof_build_time "0.001"
0 0 MapGet_M2_bit_0_if "0.001"
4455 4459 context_used ";"
4455 4459 proof_check_time "0.000"
4616 4622 VernacProof "tac:no using:no"
4793 4797 proof_build_time "0.001"
0 0 MapGet_M2_bit_0 "0.001"
4793 4797 context_used ";"
4793 4797 proof_check_time "0.000"
5021 5027 VernacProof "tac:no using:no"
5120 5124 proof_build_time "0.001"
0 0 Map2_semantics_3 "0.001"
5120 5124 context_used ";"
5120 5124 proof_check_time "0.001"
5413 5419 VernacProof "tac:no using:no"
5556 5560 proof_build_time "0.001"
0 0 Map2_semantics_3_eq "0.001"
5556 5560 context_used ";"
5556 5560 proof_check_time "0.000"
6148 6154 VernacProof "tac:no using:no"
6186 6190 proof_build_time "0.001"
0 0 MapGet_if_commute "0.001"
6186 6190 context_used ";"
6186 6190 proof_check_time "0.000"
6810 6816 VernacProof "tac:no using:no"
6852 6856 proof_build_time "0.000"
0 0 MapGet_if_same "0.000"
6852 6856 context_used ";"
6852 6856 proof_check_time "0.000"
7004 7010 VernacProof "tac:no using:no"
7075 7079 proof_build_time "0.001"
0 0 MapGet_M2_bit_0_2 "0.001"
7075 7079 context_used ";"
7075 7079 proof_check_time "0.000"
7224 7230 VernacProof "tac:no using:no"
7537 7541 proof_build_time "0.003"
0 0 MapPut1_semantics_1 "0.003"
7537 7541 context_used ";"
7537 7541 proof_check_time "0.001"
7688 7694 VernacProof "tac:no using:no"
8140 8144 proof_build_time "0.005"
0 0 MapPut1_semantics_2 "0.005"
8140 8144 context_used ";"
8140 8144 proof_check_time "0.002"
8303 8309 VernacProof "tac:no using:no"
8392 8396 proof_build_time "0.001"
0 0 MapGet_M2_both_None "0.001"
8392 8396 context_used ";"
8392 8396 proof_check_time "0.000"
8597 8603 VernacProof "tac:no using:no"
10300 10304 proof_build_time "0.019"
0 0 MapPut1_semantics_3 "0.019"
10300 10304 context_used ";"
10300 10304 proof_check_time "0.005"
10566 10572 VernacProof "tac:no using:no"
11011 11015 proof_build_time "0.004"
0 0 MapPut1_semantics "0.004"
11011 11015 context_used ";"
11011 11015 proof_check_time "0.001"
11278 11284 VernacProof "tac:no using:no"
11583 11587 proof_build_time "0.003"
0 0 MapPut1_semantics' "0.003"
11583 11587 context_used ";"
11583 11587 proof_check_time "0.001"
12235 12241 VernacProof "tac:no using:no"
12257 12261 proof_build_time "0.000"
0 0 MapPut_semantics_1 "0.000"
12257 12261 context_used ";"
12257 12261 proof_check_time "0.000"
12415 12421 VernacProof "tac:no using:no"
12488 12492 proof_build_time "0.001"
0 0 MapPut_semantics_2_1 "0.001"
12488 12492 context_used ";"
12488 12492 proof_check_time "0.001"
12709 12715 VernacProof "tac:no using:no"
13134 13138 proof_build_time "0.053"
0 0 MapPut_semantics_2_2 "0.053"
13134 13138 context_used ";"
13134 13138 proof_check_time "0.002"
13325 13331 VernacProof "tac:no using:no"
13407 13411 proof_build_time "0.001"
0 0 MapPut_semantics_2 "0.001"
13407 13411 context_used ";"
13407 13411 proof_check_time "0.000"
13608 13614 VernacProof "tac:no using:no"
13683 13687 proof_build_time "0.001"
0 0 MapPut_semantics_3_1 "0.001"
13683 13687 context_used ";"
13683 13687 proof_check_time "0.001"
13848 13854 VernacProof "tac:no using:no"
14999 15003 proof_build_time "0.013"
0 0 MapPut_semantics "0.013"
14999 15003 context_used ";"
14999 15003 proof_check_time "0.004"
15786 15792 VernacProof "tac:no using:no"
15861 15865 proof_build_time "0.001"
0 0 MapPut_behind_semantics_3_1 "0.001"
15861 15865 context_used ";"
15861 15865 proof_check_time "0.001"
16066 16072 VernacProof "tac:no using:no"
16340 16344 proof_build_time "0.003"
0 0 MapPut_behind_as_before_1 "0.003"
16340 16344 context_used ";"
16340 16344 proof_check_time "0.001"
16513 16519 VernacProof "tac:no using:no"
17242 17246 proof_build_time "0.008"
0 0 MapPut_behind_as_before "0.008"
17242 17246 context_used ";"
17242 17246 proof_check_time "0.003"
17430 17436 VernacProof "tac:no using:no"
18135 18139 proof_build_time "0.008"
0 0 MapPut_behind_new "0.008"
18135 18139 context_used ";"
18135 18139 proof_check_time "0.002"
18402 18408 VernacProof "tac:no using:no"
18713 18717 proof_build_time "0.003"
0 0 MapPut_behind_semantics "0.003"
18713 18717 context_used ";"
18713 18717 proof_check_time "0.001"
18997 19003 VernacProof "tac:no using:no"
21002 21006 proof_build_time "0.016"
0 0 makeM2_M2 "0.016"
21002 21006 context_used ";"
21002 21006 proof_check_time "0.003"
21571 21577 VernacProof "tac:no using:no"
23625 23629 proof_build_time "0.019"
0 0 MapRemove_semantics "0.019"
23625 23629 context_used ";"
23625 23629 proof_check_time "0.005"
24338 24344 VernacProof "tac:no using:no"
25185 25189 proof_build_time "0.009"
0 0 MapMerge_semantics "0.009"
25185 25189 context_used ";"
25185 25189 proof_check_time "0.003"
26001 26007 VernacProof "tac:no using:no"
27464 27468 proof_build_time "0.013"
0 0 MapDelta_semantics_comm "0.013"
27464 27468 context_used ";"
27464 27468 proof_check_time "0.004"
27649 27655 VernacProof "tac:no using:no"
28000 28004 proof_build_time "0.003"
0 0 MapDelta_semantics_1_1 "0.003"
28000 28004 context_used ";"
28000 28004 proof_check_time "0.001"
28154 28160 VernacProof "tac:no using:no"
28831 28835 proof_build_time "0.005"
0 0 MapDelta_semantics_1 "0.005"
28831 28835 context_used ";"
28831 28835 proof_check_time "0.002"
29029 29035 VernacProof "tac:no using:no"
29378 29382 proof_build_time "0.003"
0 0 MapDelta_semantics_2_1 "0.003"
29378 29382 context_used ";"
29378 29382 proof_check_time "0.001"
29576 29582 VernacProof "tac:no using:no"
29966 29970 proof_build_time "0.003"
0 0 MapDelta_semantics_2_2 "0.003"
29966 29970 context_used ";"
29966 29970 proof_check_time "0.001"
30130 30136 VernacProof "tac:no using:no"
30822 30826 proof_build_time "0.005"
0 0 MapDelta_semantics_2 "0.005"
30822 30826 context_used ";"
30822 30826 proof_check_time "0.002"
31023 31029 VernacProof "tac:no using:no"
31317 31321 proof_build_time "0.002"
0 0 MapDelta_semantics_3_1 "0.002"
31317 31321 context_used ";"
31317 31321 proof_check_time "0.001"
31485 31491 VernacProof "tac:no using:no"
32256 32260 proof_build_time "0.005"
0 0 MapDelta_semantics_3 "0.005"
32256 32260 context_used ";"
32256 32260 proof_check_time "0.016"
32528 32534 VernacProof "tac:no using:no"
33115 33119 proof_build_time "0.005"
0 0 MapDelta_semantics "0.005"
33115 33119 context_used ";"
33115 33119 proof_check_time "0.002"
33353 33359 VernacProof "tac:no using:no"
33379 33383 proof_build_time "0.000"
0 0 MapEmptyp_correct "0.000"
33379 33383 context_used ";"
33379 33383 proof_check_time "0.000"
33460 33466 VernacProof "tac:no using:no"
33555 33559 proof_build_time "0.001"
0 0 MapEmptyp_complete "0.001"
33555 33559 context_used ";"
33555 33559 proof_check_time "0.000"
0 0 vo_compile_time "0.650"
