COQAUX1 c195366c0253791a179a4395c41aaed2 /home/masie11/sat/coq-checker/pure/SetChecker.v
171 212 context_used ";"
236 326 context_used ";"
236 326 context_used ";"
236 326 context_used ";"
330 436 context_used ";"
664 668 proof_build_time "0.007"
0 0 literal_eq_dec "0.007"
664 668 context_used ";"
664 668 proof_check_time "0.001"
672 840 context_used ";"
983 987 proof_build_time "0.001"
0 0 L_satisfies_neg "0.001"
983 987 context_used ";"
983 987 proof_check_time "0.000"
1140 1144 proof_build_time "0.001"
0 0 L_satisfies_neg_neg "0.001"
1140 1144 context_used ";"
1140 1144 proof_check_time "0.000"
1168 1382 context_used ";"
1633 1637 proof_build_time "0.006"
0 0 eq_Lit_compare "0.006"
1633 1637 context_used ";"
1633 1637 proof_check_time "0.001"
1752 1756 proof_build_time "0.001"
0 0 Lit_compare_eq "0.001"
1752 1756 context_used ";"
1752 1756 proof_check_time "0.000"
2243 2247 proof_build_time "0.007"
0 0 Lit_compare_trans "0.007"
2243 2247 context_used ";"
2243 2247 proof_check_time "0.002"
2470 2474 proof_build_time "0.003"
0 0 Lit_compare_sym_Gt "0.003"
2470 2474 context_used ";"
2470 2474 proof_check_time "0.001"
2697 2701 proof_build_time "0.003"
0 0 Lit_compare_sym_Lt "0.003"
2697 2701 context_used ";"
2697 2701 proof_check_time "0.001"
2757 2791 context_used ";"
2795 2948 context_used ";"
3229 3233 proof_build_time "0.003"
0 0 C_satisfies_exists "0.003"
3229 3233 context_used ";"
3229 3233 proof_check_time "0.001"
3434 3438 proof_build_time "0.002"
0 0 exists_C_satisfies "0.002"
3434 3438 context_used ";"
3434 3438 proof_check_time "0.000"
3442 3508 context_used ";"
3510 3585 context_used ";"
3693 3772 context_used ";"
3824 3828 proof_build_time "0.000"
0 0 C_unsat_empty "0.000"
3824 3828 context_used ";"
3824 3828 proof_check_time "0.000"
3832 3882 context_used ";"
3992 3996 proof_build_time "0.000"
0 0 true_C_true "0.000"
3992 3996 context_used ";"
3992 3996 proof_check_time "0.000"
4233 4237 proof_build_time "0.002"
0 0 C_sat_clause "0.002"
4233 4237 context_used ";"
4233 4237 proof_check_time "0.000"
4538 4542 proof_build_time "0.180"
0 0 clause_eq_dec "0.180"
4538 4542 context_used ";"
4538 4542 proof_check_time "0.002"
4713 4717 proof_build_time "0.002"
0 0 clause_eq_nil_cons "0.002"
4713 4717 context_used ";"
4713 4717 proof_check_time "0.000"
4741 5061 context_used ";"
5454 5458 proof_build_time "0.010"
0 0 eq_Clause_compare "0.010"
5454 5458 context_used ";"
5454 5458 proof_check_time "0.001"
5585 5589 proof_build_time "0.001"
0 0 Clause_compare_eq "0.001"
5585 5589 context_used ";"
5585 5589 proof_check_time "0.000"
7082 7086 proof_build_time "0.069"
0 0 Clause_compare_trans "0.069"
7082 7086 context_used ";"
7082 7086 proof_check_time "0.006"
7537 7541 proof_build_time "0.007"
0 0 Clause_compare_sym_Gt "0.007"
7537 7541 context_used ";"
7537 7541 proof_check_time "0.001"
7992 7996 proof_build_time "0.007"
0 0 Clause_compare_sym_Lt "0.007"
7992 7996 context_used ";"
7992 7996 proof_check_time "0.001"
8055 8098 context_used ";"
8102 8146 context_used ";"
8148 8189 context_used ";"
8191 8237 context_used ";"
8239 8281 context_used ";"
8285 8436 context_used ";"
8702 8706 proof_build_time "0.002"
0 0 C_to_SC_wf "0.002"
8702 8706 context_used ";"
8702 8706 proof_check_time "0.000"
8710 8894 context_used ";"
9634 9638 proof_build_time "0.012"
0 0 list_append_split "0.012"
9634 9638 context_used ";"
9634 9638 proof_check_time "0.004"
10249 10253 proof_build_time "0.002"
0 0 C_to_SC_In_1 "0.002"
10249 10253 context_used ";"
10249 10253 proof_check_time "0.000"
10492 10496 proof_build_time "0.004"
0 0 SC_to_C_In_1 "0.004"
10492 10496 context_used ";"
10492 10496 proof_check_time "0.001"
10712 10716 proof_build_time "0.002"
0 0 C_to_SC_In_2 "0.002"
10712 10716 context_used ";"
10712 10716 proof_check_time "0.000"
11004 11008 proof_build_time "0.004"
0 0 SC_to_C_In_2 "0.004"
11004 11008 context_used ";"
11004 11008 proof_check_time "0.001"
11858 11862 proof_build_time "0.022"
0 0 SetClause_to_Clause_inv "0.022"
11858 11862 context_used ";"
11858 11862 proof_check_time "0.004"
12272 12276 proof_build_time "0.004"
0 0 SC_satisfies_exists "0.004"
12272 12276 context_used ";"
12272 12276 proof_check_time "0.001"
12495 12499 proof_build_time "0.001"
0 0 exists_SC_satisfies "0.001"
12495 12499 context_used ";"
12495 12499 proof_check_time "0.000"
12806 12810 proof_build_time "0.001"
0 0 C_to_C_satisfies_1 "0.001"
12806 12810 context_used ";"
12806 12810 proof_check_time "0.000"
13117 13121 proof_build_time "0.001"
0 0 C_to_C_satisfies_2 "0.001"
13117 13121 context_used ";"
13117 13121 proof_check_time "0.000"
13275 13360 context_used ";"
14070 14074 proof_build_time "0.576"
0 0 SetClause_eq_dec "0.576"
14070 14074 context_used ";"
14070 14074 proof_check_time "0.004"
14302 14306 proof_build_time "0.002"
0 0 SetClause_eq_nil_cons "0.002"
14302 14306 context_used ";"
14302 14306 proof_check_time "0.000"
14345 14381 context_used ";"
14385 14426 context_used ";"
14428 14478 context_used ";"
14480 14522 context_used ";"
14524 14575 context_used ";"
14577 14621 context_used ";"
14946 14950 proof_build_time "0.572"
0 0 CNF_eq_dec "0.572"
14946 14950 context_used ";"
14946 14950 proof_check_time "0.004"
14954 15131 context_used ";"
15415 15419 proof_build_time "0.003"
0 0 satisfies_forall "0.003"
15415 15419 context_used ";"
15415 15419 proof_check_time "0.001"
15575 15579 proof_build_time "0.002"
0 0 forall_satisfies "0.002"
15575 15579 context_used ";"
15575 15579 proof_check_time "0.000"
15872 15876 proof_build_time "0.002"
0 0 satisfies_remove "0.002"
15872 15876 context_used ";"
15872 15876 proof_check_time "0.000"
15880 15986 context_used ";"
15990 16062 context_used ";"
16474 16478 proof_build_time "0.001"
0 0 unsat_subset "0.001"
16474 16478 context_used ";"
16474 16478 proof_check_time "0.000"
16603 16607 proof_build_time "0.000"
0 0 CNF_empty "0.000"
16603 16607 context_used ";"
16603 16607 proof_check_time "0.000"
17518 17522 proof_build_time "0.008"
0 0 SC_in_add "0.008"
17518 17522 context_used ";"
17518 17522 proof_check_time "0.001"
18653 18657 proof_build_time "0.008"
0 0 propagate_singleton "0.008"
18653 18657 context_used ";"
18653 18657 proof_check_time "0.001"
19345 19349 proof_build_time "0.004"
0 0 propagate_empty "0.004"
19345 19349 context_used ";"
19345 19349 proof_check_time "0.001"
19711 19715 proof_build_time "0.001"
0 0 propagate_entails "0.001"
19711 19715 context_used ";"
19711 19715 proof_check_time "0.000"
20008 20012 proof_build_time "0.001"
0 0 propagate_true "0.001"
20008 20012 context_used ";"
20008 20012 proof_check_time "0.000"
20058 20107 context_used ";"
20111 20148 context_used ";"
20152 20397 context_used ";"
20763 20767 proof_build_time "0.004"
0 0 ICNF_to_CNF_wf "0.004"
20763 20767 context_used ";"
20763 20767 proof_check_time "0.001"
21350 21354 proof_build_time "0.015"
0 0 ICNF_get_in "0.015"
21350 21354 context_used ";"
21350 21354 proof_check_time "0.004"
22076 22080 proof_build_time "0.019"
0 0 in_ICNF_get "0.019"
22076 22080 context_used ";"
22076 22080 proof_check_time "0.006"
22753 22757 proof_build_time "0.019"
0 0 in_ICNF_get' "0.019"
22753 22757 context_used ";"
22753 22757 proof_check_time "0.006"
22761 22901 context_used ";"
23718 23722 proof_build_time "0.021"
0 0 get_ICNF_in_or_default "0.021"
23718 23722 context_used ";"
23718 23722 proof_check_time "0.007"
23726 23786 context_used ";"
24600 24604 proof_build_time "0.012"
0 0 ICNF_get_del "0.012"
24600 24604 context_used ";"
24600 24604 proof_check_time "0.004"
24986 24990 proof_build_time "0.009"
0 0 MapRemove_in "0.009"
24986 24990 context_used ";"
24986 24990 proof_check_time "0.001"
25264 25268 proof_build_time "0.005"
0 0 del_ICNF_in "0.005"
25264 25268 context_used ";"
25264 25268 proof_check_time "0.001"
26867 26953 context_used ";"
28498 28502 proof_build_time "0.036"
0 0 MapPut1_in "0.036"
28498 28502 context_used ";"
28498 28502 proof_check_time "0.004"
29704 29708 proof_build_time "0.028"
0 0 MapPut_in "0.028"
29704 29708 context_used ";"
29704 29708 proof_check_time "0.006"
30049 30053 proof_build_time "0.001"
0 0 add_ICNF_unsat "0.001"
30049 30053 context_used ";"
30049 30053 proof_check_time "0.000"
30094 30739 context_used ";"
31603 31607 proof_build_time "0.028"
0 0 propagate_sound "0.028"
31603 31607 context_used ";"
31603 31607 proof_check_time "0.006"
31654 31783 context_used ";"
31654 31783 context_used ";"
31654 31783 context_used ";"
31787 31820 context_used ";"
31824 31933 context_used ";"
31824 31933 context_used ";"
31824 31933 context_used ";"
31937 31983 context_used ";"
32041 32215 context_used ";"
32219 32245 context_used ";"
32249 32286 context_used ";"
32288 32327 context_used ";"
32331 32964 context_used ";"
33222 33230 proof_build_time "0.002"
33222 33230 context_used ";"
33222 33230 context_used ";"
33222 33230 context_used ";"
33222 33230 context_used ";"
33222 33230 context_used ";"
33222 33230 context_used ";"
33222 33230 context_used ";"
33222 33230 context_used ";"
33222 33230 context_used ";"
33222 33230 context_used ";"
33222 33230 context_used ";"
33222 33230 context_used ";"
33222 33230 proof_check_time "0.323"
35086 35090 proof_build_time "0.021"
0 0 refute_work_correct "0.021"
35086 35090 context_used ";"
35086 35090 proof_check_time "0.003"
35094 35221 context_used ";"
35474 35478 proof_build_time "0.002"
0 0 make_CNF_wf "0.002"
35474 35478 context_used ";"
35474 35478 proof_check_time "0.000"
35482 35596 context_used ";"
35956 35960 proof_build_time "0.011"
0 0 refute_correct "0.011"
35956 35960 context_used ";"
35956 35960 proof_check_time "0.009"
0 0 vo_compile_time "2.834"
